\relax 
\providecommand\hyper@newdestlabel[2]{}
\@setckpt{tex/glossary}{
\setcounter{page}{37}
\setcounter{equation}{0}
\setcounter{enumi}{7}
\setcounter{enumii}{0}
\setcounter{enumiii}{0}
\setcounter{enumiv}{0}
\setcounter{footnote}{0}
\setcounter{mpfootnote}{0}
\setcounter{part}{0}
\setcounter{section}{1}
\setcounter{subsection}{3}
\setcounter{subsubsection}{0}
\setcounter{paragraph}{0}
\setcounter{subparagraph}{0}
\setcounter{figure}{0}
\setcounter{table}{0}
\setcounter{chapter}{6}
\setcounter{theorem}{0}
\setcounter{case}{0}
\setcounter{conjecture}{0}
\setcounter{corollary}{0}
\setcounter{definition}{0}
\setcounter{example}{0}
\setcounter{exercise}{0}
\setcounter{lemma}{0}
\setcounter{note}{0}
\setcounter{problem}{0}
\setcounter{property}{0}
\setcounter{proposition}{0}
\setcounter{question}{0}
\setcounter{solution}{0}
\setcounter{remark}{0}
\setcounter{prob}{0}
\setcounter{merk}{0}
\setcounter{pp@next@reset}{0}
\setcounter{Item}{7}
\setcounter{Hfootnote}{3}
\setcounter{bookmark@seq@number}{46}
\setcounter{parentequation}{0}
\setcounter{lstnumber}{3}
\setcounter{section@level}{2}
\setcounter{lstlisting}{0}
}
