\relax 
\providecommand\hyper@newdestlabel[2]{}
\providecommand\HyperFirstAtBeginDocument{\AtBeginDocument}
\HyperFirstAtBeginDocument{\ifx\hyper@anchor\@undefined
\global\let\oldcontentsline\contentsline
\gdef\contentsline#1#2#3#4{\oldcontentsline{#1}{#2}{#3}}
\global\let\oldnewlabel\newlabel
\gdef\newlabel#1#2{\newlabelxx{#1}#2}
\gdef\newlabelxx#1#2#3#4#5#6{\oldnewlabel{#1}{{#2}{#3}}}
\AtEndDocument{\ifx\hyper@anchor\@undefined
\let\contentsline\oldcontentsline
\let\newlabel\oldnewlabel
\fi}
\fi}
\global\let\hyper@last\relax 
\gdef\HyperFirstAtBeginDocument#1{#1}
\providecommand\HyField@AuxAddToFields[1]{}
\providecommand\HyField@AuxAddToCoFields[2]{}
\@input{tex/dedic.aux}
\@input{tex/preface.aux}
\@input{tex/acknow.aux}
\@input{tex/acronym.aux}
\@writefile{toc}{\contentsline {chapter}{\numberline {1}Introduction to Symphony Framework}{1}{chapter.1}}
\@writefile{lof}{\addvspace {10\p@ }}
\@writefile{lot}{\addvspace {10\p@ }}
\newlabel{chapter:intro}{{1}{1}{Introduction to Symphony Framework}{chapter.1}{}}
\@writefile{toc}{\contentsline {section}{\numberline {1.1}Introduction}{1}{section.1.1}}
\newlabel{sec:introduction}{{1.1}{1}{Introduction}{section.1.1}{}}
\@writefile{toc}{\contentsline {subsection}{\numberline {1.1.1}Why bother?}{1}{subsection.1.1.1}}
\@writefile{toc}{\contentsline {subsection}{\numberline {1.1.2}System Requirements}{1}{subsection.1.1.2}}
\@writefile{toc}{\contentsline {subsection}{\numberline {1.1.3}Limitations}{1}{subsection.1.1.3}}
\@writefile{toc}{\contentsline {subsection}{\numberline {1.1.4}User Requirements}{1}{subsection.1.1.4}}
\@writefile{toc}{\contentsline {chapter}{\numberline {2}Symphony: A Framework for Accurate and Holistic WSN Simulation}{3}{chapter.2}}
\@writefile{lof}{\addvspace {10\p@ }}
\@writefile{lot}{\addvspace {10\p@ }}
\newlabel{chap:symphony}{{2}{3}{Symphony: A Framework for Accurate and Holistic WSN Simulation}{chapter.2}{}}
\@writefile{toc}{\contentsline {section}{\numberline {2.1}Introduction}{3}{section.2.1}}
\newlabel{sec:intro}{{2.1}{3}{Introduction}{section.2.1}{}}
\@writefile{lof}{\contentsline {figure}{\numberline {2.1}{\ignorespaces A high level architectural overview of Symphony.}}{4}{figure.2.1}}
\newlabel{fig:symphony_framework}{{2.1}{4}{A high level architectural overview of Symphony}{figure.2.1}{}}
\citation{ns2}
\citation{ns3}
\citation{omnet}
\citation{qualnet}
\citation{5561571,survey_simtools,simsurvey2010}
\citation{sensor_deployment}
\citation{critique_wsn,mac_issiues,mac_deploymen}
\citation{deploy_1,deploy_2,deploy_3,deploy_4}
\citation{citeulike:2425533}
\citation{contiki}
\citation{wsnos_survey,1593549,wsn_survey_08}
\citation{os_impact}
\citation{emstar}
\citation{atemu}
\citation{avrora}
\citation{powertossim}
\@writefile{toc}{\contentsline {section}{\numberline {2.2}Previous Work}{5}{section.2.2}}
\newlabel{sec:related}{{2.2}{5}{Previous Work}{section.2.2}{}}
\newlabel{tab:sim_benchmarking}{{2.2}{6}{Previous Work}{section.2.2}{}}
\@writefile{toc}{\contentsline {section}{\numberline {2.3}Symphony - System Architecture}{7}{section.2.3}}
\newlabel{sec:symphony}{{2.3}{7}{Symphony - System Architecture}{section.2.3}{}}
\@writefile{lof}{\contentsline {figure}{\numberline {2.2}{\ignorespaces Architecture of the Symphony framework.}}{8}{figure.2.2}}
\newlabel{fig:symphony_system_arch}{{2.2}{8}{Architecture of the Symphony framework}{figure.2.2}{}}
\@writefile{toc}{\contentsline {subsection}{\numberline {2.3.1}Models of Operating Scopes and Profiling Principles}{8}{subsection.2.3.1}}
\citation{ril_tinymulle}
\@writefile{lof}{\contentsline {figure}{\numberline {2.3}{\ignorespaces Model configuration using xml and hardware models.}}{9}{figure.2.3}}
\newlabel{fig:os-call-example}{{2.3}{9}{Model configuration using xml and hardware models}{figure.2.3}{}}
\newlabel{lst:configuration_example}{{2.1}{9}{Part of a device model in XML format describing the execution time and energy consumption of a representative component}{lstlisting.2.1}{}}
\@writefile{lol}{\contentsline {lstlisting}{\numberline {2.1}Part of a device model in XML format describing the execution time and energy consumption of a representative component.}{9}{lstlisting.2.1}}
\citation{lacage2010}
\@writefile{toc}{\contentsline {subsection}{\numberline {2.3.2}Details of Symphony Integration and Usage}{10}{subsection.2.3.2}}
\newlabel{lst:simulation_example}{{2.2}{11}{The set-up of simulations in the ns-3 environment}{lstlisting.2.2}{}}
\@writefile{lol}{\contentsline {lstlisting}{\numberline {2.2}The set-up of simulations in the ns-3 environment.}{11}{lstlisting.2.2}}
\@writefile{toc}{\contentsline {section}{\numberline {2.4}Software Scope}{11}{section.2.4}}
\newlabel{sec:software_scope}{{2.4}{11}{Software Scope}{section.2.4}{}}
\@writefile{toc}{\contentsline {subsection}{\numberline {2.4.1}Application Tier}{11}{subsection.2.4.1}}
\newlabel{fig:energy_per_operation}{{2.4.1}{12}{Application Tier}{subsection.2.4.1}{}}
\newlabel{fig:pwr_ciphers_16_ccm_enc_dec_auth}{{2.4.1}{12}{Application Tier}{subsection.2.4.1}{}}
\@writefile{lof}{\contentsline {figure}{\numberline {2.4}{\ignorespaces Measurements of energy consumption and execution time of different security extensions. }}{12}{figure.2.4}}
\newlabel{fig:profile_security}{{2.4}{12}{Measurements of energy consumption and execution time of different security extensions}{figure.2.4}{}}
\newlabel{lst:software_scope}{{2.3}{12}{Part of an XML device model that describes the execution time and energy consumption associated with the software component sec\_1}{lstlisting.2.3}{}}
\@writefile{lol}{\contentsline {lstlisting}{\numberline {2.3}Part of an XML device model that describes the execution time and energy consumption associated with the software component sec\_1}{12}{lstlisting.2.3}}
\newlabel{lst:encryption}{{3}{12}{Part of an XML device model that describes the execution time and energy consumption associated with the software component sec\_1}{lstnumber.2.3.3}{}}
\@writefile{toc}{\contentsline {subsection}{\numberline {2.4.2}Operating System Tier}{13}{subsection.2.4.2}}
\newlabel{fig:amsend}{{2.4.2}{13}{Operating System Tier}{subsection.2.4.2}{}}
\newlabel{fig:sendRateGain}{{2.4.2}{13}{Operating System Tier}{subsection.2.4.2}{}}
\@writefile{lof}{\contentsline {figure}{\numberline {2.5}{\ignorespaces Profiling at the OS- and driver tiers. }}{13}{figure.2.5}}
\newlabel{fig:radiosend}{{2.5}{13}{Profiling at the OS- and driver tiers}{figure.2.5}{}}
\newlabel{lst:os_scope}{{2.4}{13}{Part of an XML device model describing the execution time and energy consumption for a system-level component}{lstlisting.2.4}{}}
\@writefile{lol}{\contentsline {lstlisting}{\numberline {2.4}Part of an XML device model describing the execution time and energy consumption for a system-level component.}{13}{lstlisting.2.4}}
\newlabel{lst:radio_model_soft}{{3}{13}{Part of an XML device model describing the execution time and energy consumption for a system-level component}{lstnumber.2.4.3}{}}
\@writefile{toc}{\contentsline {subsection}{\numberline {2.4.3}Driver Tier}{13}{subsection.2.4.3}}
\@writefile{lof}{\contentsline {figure}{\numberline {2.6}{\ignorespaces Execution time flow in hardware/emulation.}}{14}{figure.2.6}}
\newlabel{fig:os-call-hw-example}{{2.6}{14}{Execution time flow in hardware/emulation}{figure.2.6}{}}
\newlabel{lst:radio_model_hard}{{2.5}{14}{Part of an XML device model describing the execution time and energy consumption for a hardware component}{lstlisting.2.5}{}}
\@writefile{lol}{\contentsline {lstlisting}{\numberline {2.5}Part of an XML device model describing the execution time and energy consumption for a hardware component.}{14}{lstlisting.2.5}}
\newlabel{lst:radio_model}{{3}{14}{Part of an XML device model describing the execution time and energy consumption for a hardware component}{lstnumber.2.5.3}{}}
\newlabel{lst:cca_done}{{5}{14}{Part of an XML device model describing the execution time and energy consumption for a hardware component}{lstnumber.2.5.5}{}}
\@writefile{toc}{\contentsline {section}{\numberline {2.5}Hardware Scope}{14}{section.2.5}}
\newlabel{sec:hardware_scope}{{2.5}{14}{Hardware Scope}{section.2.5}{}}
\citation{clock_sync_3,timeSyncSurvey4}
\citation{missionCriticalMac}
\@writefile{toc}{\contentsline {subsection}{\numberline {2.5.1}The Clock Model - Simulating Time Skew}{15}{subsection.2.5.1}}
\newlabel{fig:sync-desturbance}{{2.5.1}{16}{The Clock Model - Simulating Time Skew}{subsection.2.5.1}{}}
\newlabel{fig:skew_time_random}{{2.5.1}{16}{The Clock Model - Simulating Time Skew}{subsection.2.5.1}{}}
\@writefile{lof}{\contentsline {figure}{\numberline {2.7}{\ignorespaces Consequences of time skew (a) and a histogram showing the output of a random skew model (b).}}{16}{figure.2.7}}
\newlabel{lst:clock_drift}{{2.6}{16}{Part of an XML configuration file showing the parameterization of SimuClock}{lstlisting.2.6}{}}
\@writefile{lol}{\contentsline {lstlisting}{\numberline {2.6}Part of an XML configuration file showing the parameterization of SimuClock.}{16}{lstlisting.2.6}}
\newlabel{lst:simu_clock}{{4}{16}{Part of an XML configuration file showing the parameterization of SimuClock}{lstnumber.2.6.4}{}}
\newlabel{fig:skew_tos_static_1000}{{2.5.1}{17}{The Clock Model - Simulating Time Skew}{figure.2.7}{}}
\newlabel{fig:skew_time_tos_exponential_5000}{{2.5.1}{17}{The Clock Model - Simulating Time Skew}{figure.2.7}{}}
\@writefile{lof}{\contentsline {figure}{\numberline {2.8}{\ignorespaces Crystal simulations.}}{17}{figure.2.8}}
\newlabel{fig:time_skew_simualtions}{{2.8}{17}{Crystal simulations}{figure.2.8}{}}
\newlabel{lst:clock_configuration}{{2.7}{17}{Configuration of the clock model in the ns-3 environment}{lstlisting.2.7}{}}
\@writefile{lol}{\contentsline {lstlisting}{\numberline {2.7}Configuration of the clock model in the ns-3 environment.}{17}{lstlisting.2.7}}
\@writefile{toc}{\contentsline {section}{\numberline {2.6}Data Feed Scope}{17}{section.2.6}}
\newlabel{sec:data_feed}{{2.6}{17}{Data Feed Scope}{section.2.6}{}}
\@writefile{lof}{\contentsline {figure}{\numberline {2.9}{\ignorespaces Architecture of the Data Feed scope that supports the sensor model.}}{18}{figure.2.9}}
\newlabel{fig:sensory-scope}{{2.9}{18}{Architecture of the Data Feed scope that supports the sensor model}{figure.2.9}{}}
\newlabel{lst:sensor_scope}{{2.8}{19}{A representative sensory device model configuration file in XML format}{lstlisting.2.8}{}}
\@writefile{lol}{\contentsline {lstlisting}{\numberline {2.8}A representative sensory device model configuration file in XML format.}{19}{lstlisting.2.8}}
\newlabel{lst:rawsensor}{{4}{19}{A representative sensory device model configuration file in XML format}{lstnumber.2.8.4}{}}
\newlabel{lst:data_source}{{10}{19}{A representative sensory device model configuration file in XML format}{lstnumber.2.8.10}{}}
\@writefile{toc}{\contentsline {section}{\numberline {2.7}An Experimental Showcase and Performance Metrics for Symphony}{19}{section.2.7}}
\newlabel{sec:performance}{{2.7}{19}{An Experimental Showcase and Performance Metrics for Symphony}{section.2.7}{}}
\citation{ril_tinymulle}
\@writefile{lof}{\contentsline {figure}{\numberline {2.10}{\ignorespaces Number of received packets at the sink.}}{20}{figure.2.10}}
\newlabel{tab:experiment_results}{{2.10}{20}{Number of received packets at the sink}{figure.2.10}{}}
\@writefile{toc}{\contentsline {subsection}{\numberline {2.7.1}Performance of the showcase scenario}{20}{subsection.2.7.1}}
\@writefile{toc}{\contentsline {subsection}{\numberline {2.7.2}Symphony's run time performance }{21}{subsection.2.7.2}}
\newlabel{fig:open_libs}{{2.7.2}{22}{Symphony's run time performance}{subsection.2.7.2}{}}
\newlabel{fig:func_call_mixed}{{2.7.2}{22}{Symphony's run time performance}{subsection.2.7.2}{}}
\@writefile{lof}{\contentsline {figure}{\numberline {2.11}{\ignorespaces Symphony's performance measured on Intel i7 CPU with 32 GB memory.}}{22}{figure.2.11}}
\@writefile{toc}{\contentsline {section}{\numberline {2.8}Conclusions and Future Work}{22}{section.2.8}}
\newlabel{sec:conclution}{{2.8}{22}{Conclusions and Future Work}{section.2.8}{}}
\@writefile{toc}{\contentsline {chapter}{\numberline {3}Starting programming with Symphony}{25}{chapter.3}}
\@writefile{lof}{\addvspace {10\p@ }}
\@writefile{lot}{\addvspace {10\p@ }}
\newlabel{chapter:startingprog}{{3}{25}{Starting programming with Symphony}{chapter.3}{}}
\@writefile{toc}{\contentsline {section}{\numberline {3.1}Framework Installation}{25}{section.3.1}}
\newlabel{sec:installation}{{3.1}{25}{Framework Installation}{section.3.1}{}}
\@writefile{toc}{\contentsline {subsection}{\numberline {3.1.1}Preparing your self}{25}{subsection.3.1.1}}
\@writefile{toc}{\contentsline {subsection}{\numberline {3.1.2}Preparing Your System}{26}{subsection.3.1.2}}
\@writefile{toc}{\contentsline {subsection}{\numberline {3.1.3}Installing Needed Components}{26}{subsection.3.1.3}}
\@writefile{toc}{\contentsline {subsubsection}{\numberline {3.1.3.1}Installing NS3}{26}{subsubsection.3.1.3.1}}
\@writefile{toc}{\contentsline {subsubsection}{\numberline {3.1.3.2}Installing TinyOS}{28}{subsubsection.3.1.3.2}}
\@writefile{toc}{\contentsline {subsubsection}{\numberline {3.1.3.3}Elf-loader}{28}{subsubsection.3.1.3.3}}
\@writefile{toc}{\contentsline {subsubsection}{\numberline {3.1.3.4}XML parser for loading the node model}{29}{subsubsection.3.1.3.4}}
\@writefile{toc}{\contentsline {subsection}{\numberline {3.1.4}Setting Up Framework}{29}{subsection.3.1.4}}
\@writefile{toc}{\contentsline {paragraph}{Install Eclipse}{29}{section*.5}}
\@writefile{lof}{\contentsline {figure}{\numberline {3.1}{\ignorespaces Configuration example of build settings for Eclipse for ns-3 project. Note that you have to write project \textbf  {name} which can be located in the subfolder of your workspace. Moreover, build directory is the where \texttt  {waf} is located e.g. main directory in the project.}}{30}{figure.3.1}}
\newlabel{fig:eclipse-config}{{3.1}{30}{Configuration example of build settings for Eclipse for ns-3 project. Note that you have to write project \textbf {name} which can be located in the subfolder of your workspace. Moreover, build directory is the where \texttt {waf} is located e.g. main directory in the project}{figure.3.1}{}}
\@writefile{toc}{\contentsline {subsection}{\numberline {3.1.5}Running Examples}{30}{subsection.3.1.5}}
\@writefile{toc}{\contentsline {section}{\numberline {3.2}Further Reading}{30}{section.3.2}}
\newlabel{sec:furtherreading}{{3.2}{30}{Further Reading}{section.3.2}{}}
\@writefile{toc}{\contentsline {chapter}{\numberline {4}Programming Symphony Framework}{31}{chapter.4}}
\@writefile{lof}{\addvspace {10\p@ }}
\@writefile{lot}{\addvspace {10\p@ }}
\newlabel{chap:symphony}{{4}{31}{Programming Symphony Framework}{chapter.4}{}}
\@writefile{toc}{\contentsline {section}{\numberline {4.1}The Core of Symphony}{31}{section.4.1}}
\newlabel{sec:core}{{4.1}{31}{The Core of Symphony}{section.4.1}{}}
\@writefile{toc}{\contentsline {section}{\numberline {4.2}Integration of Symphony for TinyOS}{31}{section.4.2}}
\newlabel{sec:integtos}{{4.2}{31}{Integration of Symphony for TinyOS}{section.4.2}{}}
\@writefile{toc}{\contentsline {section}{\numberline {4.3}Examples}{31}{section.4.3}}
\newlabel{sec:examples}{{4.3}{31}{Examples}{section.4.3}{}}
\@writefile{toc}{\contentsline {chapter}{\numberline {5}Extending Symphony Framework}{33}{chapter.5}}
\@writefile{lof}{\addvspace {10\p@ }}
\@writefile{lot}{\addvspace {10\p@ }}
\newlabel{chap:extending}{{5}{33}{Extending Symphony Framework}{chapter.5}{}}
\@writefile{toc}{\contentsline {section}{\numberline {5.1}Extending Symphony}{33}{section.5.1}}
\newlabel{sec:extending}{{5.1}{33}{Extending Symphony}{section.5.1}{}}
\@writefile{toc}{\contentsline {subsection}{\numberline {5.1.1}Adding new TinyOS platform}{33}{subsection.5.1.1}}
\@writefile{toc}{\contentsline {subsection}{\numberline {5.1.2}Adding new models}{33}{subsection.5.1.2}}
\@writefile{toc}{\contentsline {subsection}{\numberline {5.1.3}Adding new OS}{33}{subsection.5.1.3}}
\@writefile{toc}{\contentsline {section}{\numberline {5.2}Using glib-c}{33}{section.5.2}}
\newlabel{sec:glibc}{{5.2}{33}{Using glib-c}{section.5.2}{}}
\@writefile{toc}{\contentsline {chapter}{\numberline {6}Final Notes}{35}{chapter.6}}
\@writefile{lof}{\addvspace {10\p@ }}
\@writefile{lot}{\addvspace {10\p@ }}
\@writefile{toc}{\contentsline {section}{\numberline {6.1}Future Work and List of Improvements}{35}{section.6.1}}
\newlabel{sec:future}{{6.1}{35}{Future Work and List of Improvements}{section.6.1}{}}
\@writefile{toc}{\contentsline {subsection}{\numberline {6.1.1}List of Improvements}{35}{subsection.6.1.1}}
\@writefile{toc}{\contentsline {subsection}{\numberline {6.1.2}ToDo\'s}{35}{subsection.6.1.2}}
\@writefile{toc}{\contentsline {subsection}{\numberline {6.1.3}Future Work}{35}{subsection.6.1.3}}
\@input{tex/glossary.aux}
\@writefile{toc}{\contentsline {chapter}{Index}{37}{chapter*.6}}
\bibdata{symphony/references}
