%!PS-Adobe-3.0 EPSF-3.0
%%Creator: MATLAB, The Mathworks, Inc. Version 7.7.0.471 (R2008b). Operating System: Linux 2.6.38-16-generic #67-Ubuntu SMP Thu Sep 6 17:58:38 UTC 2012 x86_64.
%%Title: /home/lauril/Dropbox/LTU/SymphonyJournal/img/energy_per_packet_new.eps
%%CreationDate: 07/08/2013  16:45:56
%%DocumentNeededFonts: Times-Bold
%%+ Helvetica
%%DocumentProcessColors: Cyan Magenta Yellow Black
%%LanguageLevel: 2
%%Pages: 1
%%BoundingBox:  -470    38  1066   804
%%EndComments

%%BeginProlog
% MathWorks dictionary
/MathWorks 160 dict begin
% definition operators
/bdef {bind def} bind def
/ldef {load def} bind def
/xdef {exch def} bdef
/xstore {exch store} bdef
% operator abbreviations
/c  /clip ldef
/cc /concat ldef
/cp /closepath ldef
/gr /grestore ldef
/gs /gsave ldef
/mt /moveto ldef
/np /newpath ldef
/cm /currentmatrix ldef
/sm /setmatrix ldef
/rm /rmoveto ldef
/rl /rlineto ldef
/s {show newpath} bdef
/sc {setcmykcolor} bdef
/sr /setrgbcolor ldef
/sg /setgray ldef
/w /setlinewidth ldef
/j /setlinejoin ldef
/cap /setlinecap ldef
/rc {rectclip} bdef
/rf {rectfill} bdef
% page state control
/pgsv () def
/bpage {/pgsv save def} bdef
/epage {pgsv restore} bdef
/bplot /gsave ldef
/eplot {stroke grestore} bdef
% orientation switch
/portraitMode 0 def /landscapeMode 1 def /rotateMode 2 def
% coordinate system mappings
/dpi2point 0 def
% font control
/FontSize 0 def
/FMS {/FontSize xstore findfont [FontSize 0 0 FontSize neg 0 0]
  makefont setfont} bdef
/reencode {exch dup where {pop load} {pop StandardEncoding} ifelse
  exch dup 3 1 roll findfont dup length dict begin
  { 1 index /FID ne {def}{pop pop} ifelse } forall
  /Encoding exch def currentdict end definefont pop} bdef
/isroman {findfont /CharStrings get /Agrave known} bdef
/FMSR {3 1 roll 1 index dup isroman {reencode} {pop pop} ifelse
  exch FMS} bdef
/csm {1 dpi2point div -1 dpi2point div scale neg translate
 dup landscapeMode eq {pop -90 rotate}
  {rotateMode eq {90 rotate} if} ifelse} bdef
% line types: solid, dotted, dashed, dotdash
/SO { [] 0 setdash } bdef
/DO { [.5 dpi2point mul 4 dpi2point mul] 0 setdash } bdef
/DA { [6 dpi2point mul] 0 setdash } bdef
/DD { [.5 dpi2point mul 4 dpi2point mul 6 dpi2point mul 4
  dpi2point mul] 0 setdash } bdef
% macros for lines and objects
/L {lineto stroke} bdef
/MP {3 1 roll moveto 1 sub {rlineto} repeat} bdef
/AP {{rlineto} repeat} bdef
/PDlw -1 def
/W {/PDlw currentlinewidth def setlinewidth} def
/PP {closepath eofill} bdef
/DP {closepath stroke} bdef
/MR {4 -2 roll moveto dup  0 exch rlineto exch 0 rlineto
  neg 0 exch rlineto closepath} bdef
/FR {MR stroke} bdef
/PR {MR fill} bdef
/L1i {{currentfile picstr readhexstring pop} image} bdef
/tMatrix matrix def
/MakeOval {newpath tMatrix currentmatrix pop translate scale
0 0 1 0 360 arc tMatrix setmatrix} bdef
/FO {MakeOval stroke} bdef
/PO {MakeOval fill} bdef
/PD {currentlinewidth 2 div 0 360 arc fill
   PDlw -1 eq not {PDlw w /PDlw -1 def} if} def
/FA {newpath tMatrix currentmatrix pop translate scale
  0 0 1 5 -2 roll arc tMatrix setmatrix stroke} bdef
/PA {newpath tMatrix currentmatrix pop	translate 0 0 moveto scale
  0 0 1 5 -2 roll arc closepath tMatrix setmatrix fill} bdef
/FAn {newpath tMatrix currentmatrix pop translate scale
  0 0 1 5 -2 roll arcn tMatrix setmatrix stroke} bdef
/PAn {newpath tMatrix currentmatrix pop translate 0 0 moveto scale
  0 0 1 5 -2 roll arcn closepath tMatrix setmatrix fill} bdef
/vradius 0 def /hradius 0 def /lry 0 def
/lrx 0 def /uly 0 def /ulx 0 def /rad 0 def
/MRR {/vradius xdef /hradius xdef /lry xdef /lrx xdef /uly xdef
  /ulx xdef newpath tMatrix currentmatrix pop ulx hradius add uly
  vradius add translate hradius vradius scale 0 0 1 180 270 arc 
  tMatrix setmatrix lrx hradius sub uly vradius add translate
  hradius vradius scale 0 0 1 270 360 arc tMatrix setmatrix
  lrx hradius sub lry vradius sub translate hradius vradius scale
  0 0 1 0 90 arc tMatrix setmatrix ulx hradius add lry vradius sub
  translate hradius vradius scale 0 0 1 90 180 arc tMatrix setmatrix
  closepath} bdef
/FRR {MRR stroke } bdef
/PRR {MRR fill } bdef
/MlrRR {/lry xdef /lrx xdef /uly xdef /ulx xdef /rad lry uly sub 2 div def
  newpath tMatrix currentmatrix pop ulx rad add uly rad add translate
  rad rad scale 0 0 1 90 270 arc tMatrix setmatrix lrx rad sub lry rad
  sub translate rad rad scale 0 0 1 270 90 arc tMatrix setmatrix
  closepath} bdef
/FlrRR {MlrRR stroke } bdef
/PlrRR {MlrRR fill } bdef
/MtbRR {/lry xdef /lrx xdef /uly xdef /ulx xdef /rad lrx ulx sub 2 div def
  newpath tMatrix currentmatrix pop ulx rad add uly rad add translate
  rad rad scale 0 0 1 180 360 arc tMatrix setmatrix lrx rad sub lry rad
  sub translate rad rad scale 0 0 1 0 180 arc tMatrix setmatrix
  closepath} bdef
/FtbRR {MtbRR stroke } bdef
/PtbRR {MtbRR fill } bdef
/stri 6 array def /dtri 6 array def
/smat 6 array def /dmat 6 array def
/tmat1 6 array def /tmat2 6 array def /dif 3 array def
/asub {/ind2 exch def /ind1 exch def dup dup
  ind1 get exch ind2 get sub exch } bdef
/tri_to_matrix {
  2 0 asub 3 1 asub 4 0 asub 5 1 asub
  dup 0 get exch 1 get 7 -1 roll astore } bdef
/compute_transform {
  dmat dtri tri_to_matrix tmat1 invertmatrix 
  smat stri tri_to_matrix tmat2 concatmatrix } bdef
/ds {stri astore pop} bdef
/dt {dtri astore pop} bdef
/db {2 copy /cols xdef /rows xdef mul dup 3 mul string
  currentfile 
  3 index 0 eq {/ASCIIHexDecode filter}
  {/ASCII85Decode filter 3 index 2 eq {/RunLengthDecode filter} if }
  ifelse exch readstring pop
  dup 0 3 index getinterval /rbmap xdef
  dup 2 index dup getinterval /gbmap xdef
  1 index dup 2 mul exch getinterval /bbmap xdef pop pop}bdef
/it {gs np dtri aload pop moveto lineto lineto cp c
  cols rows 8 compute_transform 
  rbmap gbmap bbmap true 3 colorimage gr}bdef
/il {newpath moveto lineto stroke}bdef
currentdict end def
%%EndProlog

%%BeginSetup
MathWorks begin

0 cap

end
%%EndSetup

%%Page: 1 1
%%BeginPageSetup
%%PageBoundingBox:  -470    38  1066   804
MathWorks begin
bpage
%%EndPageSetup

%%BeginObject: obj1
bplot

/dpi2point 12 def
portraitMode -5640 9648 csm

    0     0 18433  9190 rc
26 dict begin %Colortable dictionary
/c0 { 0.000000 0.000000 0.000000 sr} bdef
/c1 { 1.000000 1.000000 1.000000 sr} bdef
/c2 { 0.900000 0.000000 0.000000 sr} bdef
/c3 { 0.000000 0.820000 0.000000 sr} bdef
/c4 { 0.000000 0.000000 0.800000 sr} bdef
/c5 { 0.910000 0.820000 0.320000 sr} bdef
/c6 { 1.000000 0.260000 0.820000 sr} bdef
/c7 { 0.000000 0.820000 0.820000 sr} bdef
c0
1 j
1 sg
   0    0 18434 9191 rf
6 w
0 7778 16897 0 0 -7778 1354 8018 4 MP
PP
-16897 0 0 7778 16897 0 0 -7778 1354 8018 5 MP stroke
4 w
DO
SO
6 w
0 sg
1354 8018 mt 18251 8018 L
1354  240 mt 18251  240 L
1354 8018 mt 1354  240 L
18251 8018 mt 18251  240 L
1354 8018 mt 18251 8018 L
1354 8018 mt 1354  240 L
3767 8018 mt 3767 7849 L
3767  240 mt 3767  408 L
%%IncludeResource: font Times-Bold
/Times-Bold /ISOLatin1Encoding 480 FMSR

3527 8500 mt 
(20) s
6181 8018 mt 6181 7849 L
6181  240 mt 6181  408 L
5941 8500 mt 
(40) s
8595 8018 mt 8595 7849 L
8595  240 mt 8595  408 L
8235 8500 mt 
(100) s
11009 8018 mt 11009 7849 L
11009  240 mt 11009  408 L
10649 8500 mt 
(200) s
13423 8018 mt 13423 7849 L
13423  240 mt 13423  408 L
13063 8500 mt 
(250) s
15837 8018 mt 15837 7849 L
15837  240 mt 15837  408 L
15477 8500 mt 
(400) s
1354 8018 mt 1522 8018 L
18251 8018 mt 18082 8018 L
1079 8197 mt 
(0) s
1354 6073 mt 1522 6073 L
18251 6073 mt 18082 6073 L
 719 6252 mt 
(0.2) s
1354 4129 mt 1522 4129 L
18251 4129 mt 18082 4129 L
 719 4308 mt 
(0.4) s
1354 2184 mt 1522 2184 L
18251 2184 mt 18082 2184 L
 719 2363 mt 
(0.6) s
1354  240 mt 1522  240 L
18251  240 mt 18082  240 L
 719  419 mt 
(0.8) s
1354 8018 mt 18251 8018 L
1354  240 mt 18251  240 L
1354 8018 mt 1354  240 L
18251 8018 mt 18251  240 L
gs 1354 240 16898 7779 rc
0 6960 352 0 0 -6960 2933 8018 4 MP
PP
-352 0 0 6960 352 0 0 -6960 2933 8018 5 MP stroke
0 3410 351 0 0 -3410 5347 8018 4 MP
PP
-351 0 0 3410 351 0 0 -3410 5347 8018 5 MP stroke
0 1501 351 0 0 -1501 7761 8018 4 MP
PP
-351 0 0 1501 351 0 0 -1501 7761 8018 5 MP stroke
0 877 351 0 0 -877 10175 8018 4 MP
PP
-351 0 0 877 351 0 0 -877 10175 8018 5 MP stroke
0 675 351 0 0 -675 12589 8018 4 MP
PP
-351 0 0 675 351 0 0 -675 12589 8018 5 MP stroke
0 561 351 0 0 -561 15003 8018 4 MP
PP
-351 0 0 561 351 0 0 -561 15003 8018 5 MP stroke
16897 0 1354 8018 2 MP stroke
0.8 sg
0 6747 351 0 0 -6747 3372 8018 4 MP
PP
0 sg
-351 0 0 6747 351 0 0 -6747 3372 8018 5 MP stroke
0.8 sg
0 2989 351 0 0 -2989 5786 8018 4 MP
PP
0 sg
-351 0 0 2989 351 0 0 -2989 5786 8018 5 MP stroke
0.8 sg
0 1448 351 0 0 -1448 8200 8018 4 MP
PP
0 sg
-351 0 0 1448 351 0 0 -1448 8200 8018 5 MP stroke
0.8 sg
0 849 351 0 0 -849 10614 8018 4 MP
PP
0 sg
-351 0 0 849 351 0 0 -849 10614 8018 5 MP stroke
0.8 sg
0 600 351 0 0 -600 13028 8018 4 MP
PP
0 sg
-351 0 0 600 351 0 0 -600 13028 8018 5 MP stroke
0.8 sg
0 543 351 0 0 -543 15442 8018 4 MP
PP
0 sg
-351 0 0 543 351 0 0 -543 15442 8018 5 MP stroke
0.7 sg
0 5577 351 0 0 -5577 3811 8018 4 MP
PP
0 sg
-351 0 0 5577 351 0 0 -5577 3811 8018 5 MP stroke
0.7 sg
0 2623 351 0 0 -2623 6225 8018 4 MP
PP
0 sg
-351 0 0 2623 351 0 0 -2623 6225 8018 5 MP stroke
0.7 sg
0 1210 351 0 0 -1210 8639 8018 4 MP
PP
0 sg
-351 0 0 1210 351 0 0 -1210 8639 8018 5 MP stroke
0.7 sg
0 722 351 0 0 -722 11053 8018 4 MP
PP
0 sg
-351 0 0 722 351 0 0 -722 11053 8018 5 MP stroke
0.7 sg
0 539 351 0 0 -539 13467 8018 4 MP
PP
0 sg
-351 0 0 539 351 0 0 -539 13467 8018 5 MP stroke
0.7 sg
0 471 351 0 0 -471 15881 8018 4 MP
PP
0 sg
-351 0 0 471 351 0 0 -471 15881 8018 5 MP stroke
1 sg
0 4885 351 0 0 -4885 4250 8018 4 MP
PP
0 sg
-351 0 0 4885 351 0 0 -4885 4250 8018 5 MP stroke
1 sg
0 2534 351 0 0 -2534 6664 8018 4 MP
PP
0 sg
-351 0 0 2534 351 0 0 -2534 6664 8018 5 MP stroke
1 sg
0 1067 351 0 0 -1067 9078 8018 4 MP
PP
0 sg
-351 0 0 1067 351 0 0 -1067 9078 8018 5 MP stroke
1 sg
0 645 351 0 0 -645 11492 8018 4 MP
PP
0 sg
-351 0 0 645 351 0 0 -645 11492 8018 5 MP stroke
1 sg
0 519 351 0 0 -519 13906 8018 4 MP
PP
0 sg
-351 0 0 519 351 0 0 -519 13906 8018 5 MP stroke
1 sg
0 428 352 0 0 -428 16319 8018 4 MP
PP
0 sg
-352 0 0 428 352 0 0 -428 16319 8018 5 MP stroke
gr

7165 8887 mt 
(Transmission rate \(kbit/s\)) s
 560 6705 mt  -90 rotate
(Energy per packet \(mAs\)) s
90 rotate
1294 8191 mt 
( ) s
18192  412 mt 
( ) s
1 sg
0 2332 2366 0 0 -2332 15580 2970 4 MP
PP
-2366 0 0 2332 2366 0 0 -2332 15580 2970 5 MP stroke
4 w
DO
SO
6 w
0 sg
15580 2970 mt 17946 2970 L
15580  638 mt 17946  638 L
15580 2970 mt 15580  638 L
17946 2970 mt 17946  638 L
15580 2970 mt 17946 2970 L
15580 2970 mt 15580  638 L
15580 2970 mt 17946 2970 L
15580  638 mt 17946  638 L
15580 2970 mt 15580  638 L
17946 2970 mt 17946  638 L
16066 1117 mt 
(4 dBm) s
gs 15580 638 2367 2333 rc
-374 0 0 447 374 0 0 -447 15654 1168 5 MP
PP
0 0 -374 0 0 447 374 0 0 -447 15654 1168 6 MP stroke
gr

16066 1690 mt 
(0 dBm) s
gs 15580 638 2367 2333 rc
0.8 sg
-374 0 0 447 374 0 0 -447 15654 1741 5 MP
PP
0 sg
0 0 -374 0 0 447 374 0 0 -447 15654 1741 6 MP stroke
gr

16066 2263 mt 
(-4 dBm) s
gs 15580 638 2367 2333 rc
0.7 sg
-374 0 0 447 374 0 0 -447 15654 2313 5 MP
PP
0 sg
0 0 -374 0 0 447 374 0 0 -447 15654 2313 6 MP stroke
gr

16066 2836 mt 
(-11 dBm) s
gs 15580 638 2367 2333 rc
1 sg
-374 0 0 447 374 0 0 -447 15654 2886 5 MP
PP
0 sg
0 0 -374 0 0 447 374 0 0 -447 15654 2886 6 MP stroke
gr


end %%Color Dict

eplot
%%EndObject

epage
end

showpage

%%Trailer
%%EOF
