%!PS-Adobe-3.0 EPSF-3.0
%%Creator: MATLAB, The Mathworks, Inc. Version 7.7.0.471 (R2008b). Operating System: Linux 2.6.38-16-generic #67-Ubuntu SMP Thu Sep 6 17:58:38 UTC 2012 x86_64.
%%Title: /home/lauril/Dropbox/LTU/SymphonyJournal/img/energy_per_operation_softaes_7part.eps
%%CreationDate: 07/08/2013  17:45:36
%%DocumentNeededFonts: Helvetica
%%+ Helvetica-Bold
%%DocumentProcessColors: Cyan Magenta Yellow Black
%%LanguageLevel: 2
%%Pages: 1
%%BoundingBox:  -470    20  1066   821
%%EndComments

%%BeginProlog
% MathWorks dictionary
/MathWorks 160 dict begin
% definition operators
/bdef {bind def} bind def
/ldef {load def} bind def
/xdef {exch def} bdef
/xstore {exch store} bdef
% operator abbreviations
/c  /clip ldef
/cc /concat ldef
/cp /closepath ldef
/gr /grestore ldef
/gs /gsave ldef
/mt /moveto ldef
/np /newpath ldef
/cm /currentmatrix ldef
/sm /setmatrix ldef
/rm /rmoveto ldef
/rl /rlineto ldef
/s {show newpath} bdef
/sc {setcmykcolor} bdef
/sr /setrgbcolor ldef
/sg /setgray ldef
/w /setlinewidth ldef
/j /setlinejoin ldef
/cap /setlinecap ldef
/rc {rectclip} bdef
/rf {rectfill} bdef
% page state control
/pgsv () def
/bpage {/pgsv save def} bdef
/epage {pgsv restore} bdef
/bplot /gsave ldef
/eplot {stroke grestore} bdef
% orientation switch
/portraitMode 0 def /landscapeMode 1 def /rotateMode 2 def
% coordinate system mappings
/dpi2point 0 def
% font control
/FontSize 0 def
/FMS {/FontSize xstore findfont [FontSize 0 0 FontSize neg 0 0]
  makefont setfont} bdef
/reencode {exch dup where {pop load} {pop StandardEncoding} ifelse
  exch dup 3 1 roll findfont dup length dict begin
  { 1 index /FID ne {def}{pop pop} ifelse } forall
  /Encoding exch def currentdict end definefont pop} bdef
/isroman {findfont /CharStrings get /Agrave known} bdef
/FMSR {3 1 roll 1 index dup isroman {reencode} {pop pop} ifelse
  exch FMS} bdef
/csm {1 dpi2point div -1 dpi2point div scale neg translate
 dup landscapeMode eq {pop -90 rotate}
  {rotateMode eq {90 rotate} if} ifelse} bdef
% line types: solid, dotted, dashed, dotdash
/SO { [] 0 setdash } bdef
/DO { [.5 dpi2point mul 4 dpi2point mul] 0 setdash } bdef
/DA { [6 dpi2point mul] 0 setdash } bdef
/DD { [.5 dpi2point mul 4 dpi2point mul 6 dpi2point mul 4
  dpi2point mul] 0 setdash } bdef
% macros for lines and objects
/L {lineto stroke} bdef
/MP {3 1 roll moveto 1 sub {rlineto} repeat} bdef
/AP {{rlineto} repeat} bdef
/PDlw -1 def
/W {/PDlw currentlinewidth def setlinewidth} def
/PP {closepath eofill} bdef
/DP {closepath stroke} bdef
/MR {4 -2 roll moveto dup  0 exch rlineto exch 0 rlineto
  neg 0 exch rlineto closepath} bdef
/FR {MR stroke} bdef
/PR {MR fill} bdef
/L1i {{currentfile picstr readhexstring pop} image} bdef
/tMatrix matrix def
/MakeOval {newpath tMatrix currentmatrix pop translate scale
0 0 1 0 360 arc tMatrix setmatrix} bdef
/FO {MakeOval stroke} bdef
/PO {MakeOval fill} bdef
/PD {currentlinewidth 2 div 0 360 arc fill
   PDlw -1 eq not {PDlw w /PDlw -1 def} if} def
/FA {newpath tMatrix currentmatrix pop translate scale
  0 0 1 5 -2 roll arc tMatrix setmatrix stroke} bdef
/PA {newpath tMatrix currentmatrix pop	translate 0 0 moveto scale
  0 0 1 5 -2 roll arc closepath tMatrix setmatrix fill} bdef
/FAn {newpath tMatrix currentmatrix pop translate scale
  0 0 1 5 -2 roll arcn tMatrix setmatrix stroke} bdef
/PAn {newpath tMatrix currentmatrix pop translate 0 0 moveto scale
  0 0 1 5 -2 roll arcn closepath tMatrix setmatrix fill} bdef
/vradius 0 def /hradius 0 def /lry 0 def
/lrx 0 def /uly 0 def /ulx 0 def /rad 0 def
/MRR {/vradius xdef /hradius xdef /lry xdef /lrx xdef /uly xdef
  /ulx xdef newpath tMatrix currentmatrix pop ulx hradius add uly
  vradius add translate hradius vradius scale 0 0 1 180 270 arc 
  tMatrix setmatrix lrx hradius sub uly vradius add translate
  hradius vradius scale 0 0 1 270 360 arc tMatrix setmatrix
  lrx hradius sub lry vradius sub translate hradius vradius scale
  0 0 1 0 90 arc tMatrix setmatrix ulx hradius add lry vradius sub
  translate hradius vradius scale 0 0 1 90 180 arc tMatrix setmatrix
  closepath} bdef
/FRR {MRR stroke } bdef
/PRR {MRR fill } bdef
/MlrRR {/lry xdef /lrx xdef /uly xdef /ulx xdef /rad lry uly sub 2 div def
  newpath tMatrix currentmatrix pop ulx rad add uly rad add translate
  rad rad scale 0 0 1 90 270 arc tMatrix setmatrix lrx rad sub lry rad
  sub translate rad rad scale 0 0 1 270 90 arc tMatrix setmatrix
  closepath} bdef
/FlrRR {MlrRR stroke } bdef
/PlrRR {MlrRR fill } bdef
/MtbRR {/lry xdef /lrx xdef /uly xdef /ulx xdef /rad lrx ulx sub 2 div def
  newpath tMatrix currentmatrix pop ulx rad add uly rad add translate
  rad rad scale 0 0 1 180 360 arc tMatrix setmatrix lrx rad sub lry rad
  sub translate rad rad scale 0 0 1 0 180 arc tMatrix setmatrix
  closepath} bdef
/FtbRR {MtbRR stroke } bdef
/PtbRR {MtbRR fill } bdef
/stri 6 array def /dtri 6 array def
/smat 6 array def /dmat 6 array def
/tmat1 6 array def /tmat2 6 array def /dif 3 array def
/asub {/ind2 exch def /ind1 exch def dup dup
  ind1 get exch ind2 get sub exch } bdef
/tri_to_matrix {
  2 0 asub 3 1 asub 4 0 asub 5 1 asub
  dup 0 get exch 1 get 7 -1 roll astore } bdef
/compute_transform {
  dmat dtri tri_to_matrix tmat1 invertmatrix 
  smat stri tri_to_matrix tmat2 concatmatrix } bdef
/ds {stri astore pop} bdef
/dt {dtri astore pop} bdef
/db {2 copy /cols xdef /rows xdef mul dup 3 mul string
  currentfile 
  3 index 0 eq {/ASCIIHexDecode filter}
  {/ASCII85Decode filter 3 index 2 eq {/RunLengthDecode filter} if }
  ifelse exch readstring pop
  dup 0 3 index getinterval /rbmap xdef
  dup 2 index dup getinterval /gbmap xdef
  1 index dup 2 mul exch getinterval /bbmap xdef pop pop}bdef
/it {gs np dtri aload pop moveto lineto lineto cp c
  cols rows 8 compute_transform 
  rbmap gbmap bbmap true 3 colorimage gr}bdef
/il {newpath moveto lineto stroke}bdef
currentdict end def
%%EndProlog

%%BeginSetup
MathWorks begin

0 cap

end
%%EndSetup

%%Page: 1 1
%%BeginPageSetup
%%PageBoundingBox:  -470    20  1066   821
MathWorks begin
bpage
%%EndPageSetup

%%BeginObject: obj1
bplot

/dpi2point 4.16667 def
portraitMode -1958 3420 csm

    0     0  6400  3335 rc
26 dict begin %Colortable dictionary
/c0 { 0.000000 0.000000 0.000000 sr} bdef
/c1 { 1.000000 1.000000 1.000000 sr} bdef
/c2 { 0.900000 0.000000 0.000000 sr} bdef
/c3 { 0.000000 0.820000 0.000000 sr} bdef
/c4 { 0.000000 0.000000 0.800000 sr} bdef
/c5 { 0.910000 0.820000 0.320000 sr} bdef
/c6 { 1.000000 0.260000 0.820000 sr} bdef
/c7 { 0.000000 0.820000 0.820000 sr} bdef
c0
1 j
1 sg
   0    0 6401 3336 rf
16.6667 w
0 2878 5890 0 0 -2878 450 2945 4 MP
PP
-5890 0 0 2878 5890 0 0 -2878 450 2945 5 MP stroke
11.1111 w
DO
SO
16.6667 w
0 sg
 450 2945 mt 6340 2945 L
 450   67 mt 6340   67 L
 450 2945 mt  450   67 L
6340 2945 mt 6340   67 L
 450 2945 mt 6340 2945 L
 450 2945 mt  450   67 L
1186 2945 mt 1186 2886 L
1186   67 mt 1186  125 L
%%IncludeResource: font Helvetica-Bold
/Helvetica-Bold /ISOLatin1Encoding 166.667 FMSR

1071 3117 mt 
(16 ) s
2658 2945 mt 2658 2886 L
2658   67 mt 2658  125 L
2543 3117 mt 
(32 ) s
4131 2945 mt 4131 2886 L
4131   67 mt 4131  125 L
4016 3117 mt 
(64 ) s
5603 2945 mt 5603 2886 L
5603   67 mt 5603  125 L
5464 3117 mt 
(128) s
 450 2945 mt  508 2945 L
6340 2945 mt 6281 2945 L
 346 3009 mt 
(0) s
 450 2625 mt  508 2625 L
6340 2625 mt 6281 2625 L
 207 2689 mt 
(0.5) s
 450 2305 mt  508 2305 L
6340 2305 mt 6281 2305 L
 346 2369 mt 
(1) s
 450 1985 mt  508 1985 L
6340 1985 mt 6281 1985 L
 207 2049 mt 
(1.5) s
 450 1665 mt  508 1665 L
6340 1665 mt 6281 1665 L
 346 1729 mt 
(2) s
 450 1346 mt  508 1346 L
6340 1346 mt 6281 1346 L
 207 1410 mt 
(2.5) s
 450 1026 mt  508 1026 L
6340 1026 mt 6281 1026 L
 346 1090 mt 
(3) s
 450  706 mt  508  706 L
6340  706 mt 6281  706 L
 207  770 mt 
(3.5) s
 450  386 mt  508  386 L
6340  386 mt 6281  386 L
 346  450 mt 
(4) s
 450   67 mt  508   67 L
6340   67 mt 6281   67 L
 207  131 mt 
(4.5) s
 450 2945 mt 6340 2945 L
 450   67 mt 6340   67 L
 450 2945 mt  450   67 L
6340 2945 mt 6340   67 L
gs 450 67 5891 2879 rc
0.2 sg
0 456 181 0 0 -456 642 2945 4 MP
PP
0 sg
-181 0 0 456 181 0 0 -456 642 2945 5 MP stroke
0.2 sg
0 603 181 0 0 -603 2115 2945 4 MP
PP
0 sg
-181 0 0 603 181 0 0 -603 2115 2945 5 MP stroke
0.2 sg
0 898 181 0 0 -898 3587 2945 4 MP
PP
0 sg
-181 0 0 898 181 0 0 -898 3587 2945 5 MP stroke
0.2 sg
0 1431 181 0 0 -1431 5060 2945 4 MP
PP
0 sg
-181 0 0 1431 181 0 0 -1431 5060 2945 5 MP stroke
5890 0 450 2945 2 MP stroke
0.4 sg
0 739 181 0 0 -739 869 2945 4 MP
PP
0 sg
-181 0 0 739 181 0 0 -739 869 2945 5 MP stroke
0.4 sg
0 1019 181 0 0 -1019 2341 2945 4 MP
PP
0 sg
-181 0 0 1019 181 0 0 -1019 2341 2945 5 MP stroke
0.4 sg
0 1577 181 0 0 -1577 3814 2945 4 MP
PP
0 sg
-181 0 0 1577 181 0 0 -1577 3814 2945 5 MP stroke
0.4 sg
0 2590 181 0 0 -2590 5286 2945 4 MP
PP
0 sg
-181 0 0 2590 181 0 0 -2590 5286 2945 5 MP stroke
0.6 sg
0 305 181 0 0 -305 1095 2945 4 MP
PP
0 sg
-181 0 0 305 181 0 0 -305 1095 2945 5 MP stroke
0.6 sg
0 309 181 0 0 -309 2568 2945 4 MP
PP
0 sg
-181 0 0 309 181 0 0 -309 2568 2945 5 MP stroke
0.6 sg
0 318 181 0 0 -318 4040 2945 4 MP
PP
0 sg
-181 0 0 318 181 0 0 -318 4040 2945 5 MP stroke
0.6 sg
0 329 181 0 0 -329 5513 2945 4 MP
PP
0 sg
-181 0 0 329 181 0 0 -329 5513 2945 5 MP stroke
0.8 sg
0 596 181 0 0 -596 1322 2945 4 MP
PP
0 sg
-181 0 0 596 181 0 0 -596 1322 2945 5 MP stroke
0.8 sg
0 747 181 0 0 -747 2794 2945 4 MP
PP
0 sg
-181 0 0 747 181 0 0 -747 2794 2945 5 MP stroke
0.8 sg
0 1050 181 0 0 -1050 4267 2945 4 MP
PP
0 sg
-181 0 0 1050 181 0 0 -1050 4267 2945 5 MP stroke
0.8 sg
0 1593 181 0 0 -1593 5739 2945 4 MP
PP
0 sg
-181 0 0 1593 181 0 0 -1593 5739 2945 5 MP stroke
1 sg
0 739 181 0 0 -739 1548 2945 4 MP
PP
0 sg
-181 0 0 739 181 0 0 -739 1548 2945 5 MP stroke
1 sg
0 1018 181 0 0 -1018 3021 2945 4 MP
PP
0 sg
-181 0 0 1018 181 0 0 -1018 3021 2945 5 MP stroke
1 sg
0 1577 181 0 0 -1577 4493 2945 4 MP
PP
0 sg
-181 0 0 1577 181 0 0 -1577 4493 2945 5 MP stroke
1 sg
0 2590 181 0 0 -2590 5966 2945 4 MP
PP
0 sg
-181 0 0 2590 181 0 0 -2590 5966 2945 5 MP stroke
gr

2602 3259 mt 
(Payload size \(bytes\)) s
 149 2426 mt  -90 rotate
(Energy per packet \(mJ\)) s
90 rotate
 427 3007 mt 
( ) s
6318  128 mt 
( ) s
1 sg
0 1108 648 0 0 -1108 566 1291 4 MP
PP
-648 0 0 1108 648 0 0 -1108 566 1291 5 MP stroke
11.1111 w
DO
SO
16.6667 w
0 sg
 566 1291 mt 1214 1291 L
 566  183 mt 1214  183 L
 566 1291 mt  566  183 L
1214 1291 mt 1214  183 L
 566 1291 mt 1214 1291 L
 566 1291 mt  566  183 L
 566 1291 mt 1214 1291 L
 566  183 mt 1214  183 L
 566 1291 mt  566  183 L
1214 1291 mt 1214  183 L
 729  361 mt 
(sec_1) s
gs 566 183 649 1109 rc
0.2 sg
-125 0 0 171 125 0 0 -171 590 385 5 MP
PP
2.08333 w
0 sg
0 0 -125 0 0 171 125 0 0 -171 590 385 6 MP stroke
gr

2.08333 w
 729  580 mt 
(sec_2) s
gs 566 183 649 1109 rc
0.4 sg
-125 0 0 171 125 0 0 -171 590 603 5 MP
PP
0 sg
0 0 -125 0 0 171 125 0 0 -171 590 603 6 MP stroke
gr

 729  799 mt 
(sec_3) s
gs 566 183 649 1109 rc
0.6 sg
-125 0 0 171 125 0 0 -171 590 822 5 MP
PP
0 sg
0 0 -125 0 0 171 125 0 0 -171 590 822 6 MP stroke
gr

 729 1017 mt 
(sec_4) s
gs 566 183 649 1109 rc
0.8 sg
-125 0 0 171 125 0 0 -171 590 1041 5 MP
PP
0 sg
0 0 -125 0 0 171 125 0 0 -171 590 1041 6 MP stroke
gr

 729 1236 mt 
(sec_5) s
gs 566 183 649 1109 rc
1 sg
-125 0 0 171 125 0 0 -171 590 1259 5 MP
PP
0 sg
0 0 -125 0 0 171 125 0 0 -171 590 1259 6 MP stroke
16.6667 w
gr

16.6667 w
2.08333 w

end %%Color Dict

eplot
%%EndObject

epage
end

showpage

%%Trailer
%%EOF
