%!PS-Adobe-3.0 EPSF-3.0
%%Creator: MATLAB, The Mathworks, Inc. Version 7.7.0.471 (R2008b). Operating System: Linux 2.6.38-16-generic #67-Ubuntu SMP Thu Sep 6 17:58:38 UTC 2012 x86_64.
%%Title: /home/lauril/Dropbox/LTU/SymphonyJournal/img/energy_per_packet.eps
%%CreationDate: 07/08/2013  17:53:46
%%DocumentNeededFonts: Helvetica-Bold
%%+ Helvetica
%%DocumentProcessColors: Cyan Magenta Yellow Black
%%LanguageLevel: 2
%%Pages: 1
%%BoundingBox:  -470    38  1066   804
%%EndComments

%%BeginProlog
% MathWorks dictionary
/MathWorks 160 dict begin
% definition operators
/bdef {bind def} bind def
/ldef {load def} bind def
/xdef {exch def} bdef
/xstore {exch store} bdef
% operator abbreviations
/c  /clip ldef
/cc /concat ldef
/cp /closepath ldef
/gr /grestore ldef
/gs /gsave ldef
/mt /moveto ldef
/np /newpath ldef
/cm /currentmatrix ldef
/sm /setmatrix ldef
/rm /rmoveto ldef
/rl /rlineto ldef
/s {show newpath} bdef
/sc {setcmykcolor} bdef
/sr /setrgbcolor ldef
/sg /setgray ldef
/w /setlinewidth ldef
/j /setlinejoin ldef
/cap /setlinecap ldef
/rc {rectclip} bdef
/rf {rectfill} bdef
% page state control
/pgsv () def
/bpage {/pgsv save def} bdef
/epage {pgsv restore} bdef
/bplot /gsave ldef
/eplot {stroke grestore} bdef
% orientation switch
/portraitMode 0 def /landscapeMode 1 def /rotateMode 2 def
% coordinate system mappings
/dpi2point 0 def
% font control
/FontSize 0 def
/FMS {/FontSize xstore findfont [FontSize 0 0 FontSize neg 0 0]
  makefont setfont} bdef
/reencode {exch dup where {pop load} {pop StandardEncoding} ifelse
  exch dup 3 1 roll findfont dup length dict begin
  { 1 index /FID ne {def}{pop pop} ifelse } forall
  /Encoding exch def currentdict end definefont pop} bdef
/isroman {findfont /CharStrings get /Agrave known} bdef
/FMSR {3 1 roll 1 index dup isroman {reencode} {pop pop} ifelse
  exch FMS} bdef
/csm {1 dpi2point div -1 dpi2point div scale neg translate
 dup landscapeMode eq {pop -90 rotate}
  {rotateMode eq {90 rotate} if} ifelse} bdef
% line types: solid, dotted, dashed, dotdash
/SO { [] 0 setdash } bdef
/DO { [.5 dpi2point mul 4 dpi2point mul] 0 setdash } bdef
/DA { [6 dpi2point mul] 0 setdash } bdef
/DD { [.5 dpi2point mul 4 dpi2point mul 6 dpi2point mul 4
  dpi2point mul] 0 setdash } bdef
% macros for lines and objects
/L {lineto stroke} bdef
/MP {3 1 roll moveto 1 sub {rlineto} repeat} bdef
/AP {{rlineto} repeat} bdef
/PDlw -1 def
/W {/PDlw currentlinewidth def setlinewidth} def
/PP {closepath eofill} bdef
/DP {closepath stroke} bdef
/MR {4 -2 roll moveto dup  0 exch rlineto exch 0 rlineto
  neg 0 exch rlineto closepath} bdef
/FR {MR stroke} bdef
/PR {MR fill} bdef
/L1i {{currentfile picstr readhexstring pop} image} bdef
/tMatrix matrix def
/MakeOval {newpath tMatrix currentmatrix pop translate scale
0 0 1 0 360 arc tMatrix setmatrix} bdef
/FO {MakeOval stroke} bdef
/PO {MakeOval fill} bdef
/PD {currentlinewidth 2 div 0 360 arc fill
   PDlw -1 eq not {PDlw w /PDlw -1 def} if} def
/FA {newpath tMatrix currentmatrix pop translate scale
  0 0 1 5 -2 roll arc tMatrix setmatrix stroke} bdef
/PA {newpath tMatrix currentmatrix pop	translate 0 0 moveto scale
  0 0 1 5 -2 roll arc closepath tMatrix setmatrix fill} bdef
/FAn {newpath tMatrix currentmatrix pop translate scale
  0 0 1 5 -2 roll arcn tMatrix setmatrix stroke} bdef
/PAn {newpath tMatrix currentmatrix pop translate 0 0 moveto scale
  0 0 1 5 -2 roll arcn closepath tMatrix setmatrix fill} bdef
/vradius 0 def /hradius 0 def /lry 0 def
/lrx 0 def /uly 0 def /ulx 0 def /rad 0 def
/MRR {/vradius xdef /hradius xdef /lry xdef /lrx xdef /uly xdef
  /ulx xdef newpath tMatrix currentmatrix pop ulx hradius add uly
  vradius add translate hradius vradius scale 0 0 1 180 270 arc 
  tMatrix setmatrix lrx hradius sub uly vradius add translate
  hradius vradius scale 0 0 1 270 360 arc tMatrix setmatrix
  lrx hradius sub lry vradius sub translate hradius vradius scale
  0 0 1 0 90 arc tMatrix setmatrix ulx hradius add lry vradius sub
  translate hradius vradius scale 0 0 1 90 180 arc tMatrix setmatrix
  closepath} bdef
/FRR {MRR stroke } bdef
/PRR {MRR fill } bdef
/MlrRR {/lry xdef /lrx xdef /uly xdef /ulx xdef /rad lry uly sub 2 div def
  newpath tMatrix currentmatrix pop ulx rad add uly rad add translate
  rad rad scale 0 0 1 90 270 arc tMatrix setmatrix lrx rad sub lry rad
  sub translate rad rad scale 0 0 1 270 90 arc tMatrix setmatrix
  closepath} bdef
/FlrRR {MlrRR stroke } bdef
/PlrRR {MlrRR fill } bdef
/MtbRR {/lry xdef /lrx xdef /uly xdef /ulx xdef /rad lrx ulx sub 2 div def
  newpath tMatrix currentmatrix pop ulx rad add uly rad add translate
  rad rad scale 0 0 1 180 360 arc tMatrix setmatrix lrx rad sub lry rad
  sub translate rad rad scale 0 0 1 0 180 arc tMatrix setmatrix
  closepath} bdef
/FtbRR {MtbRR stroke } bdef
/PtbRR {MtbRR fill } bdef
/stri 6 array def /dtri 6 array def
/smat 6 array def /dmat 6 array def
/tmat1 6 array def /tmat2 6 array def /dif 3 array def
/asub {/ind2 exch def /ind1 exch def dup dup
  ind1 get exch ind2 get sub exch } bdef
/tri_to_matrix {
  2 0 asub 3 1 asub 4 0 asub 5 1 asub
  dup 0 get exch 1 get 7 -1 roll astore } bdef
/compute_transform {
  dmat dtri tri_to_matrix tmat1 invertmatrix 
  smat stri tri_to_matrix tmat2 concatmatrix } bdef
/ds {stri astore pop} bdef
/dt {dtri astore pop} bdef
/db {2 copy /cols xdef /rows xdef mul dup 3 mul string
  currentfile 
  3 index 0 eq {/ASCIIHexDecode filter}
  {/ASCII85Decode filter 3 index 2 eq {/RunLengthDecode filter} if }
  ifelse exch readstring pop
  dup 0 3 index getinterval /rbmap xdef
  dup 2 index dup getinterval /gbmap xdef
  1 index dup 2 mul exch getinterval /bbmap xdef pop pop}bdef
/it {gs np dtri aload pop moveto lineto lineto cp c
  cols rows 8 compute_transform 
  rbmap gbmap bbmap true 3 colorimage gr}bdef
/il {newpath moveto lineto stroke}bdef
currentdict end def
%%EndProlog

%%BeginSetup
MathWorks begin

0 cap

end
%%EndSetup

%%Page: 1 1
%%BeginPageSetup
%%PageBoundingBox:  -470    38  1066   804
MathWorks begin
bpage
%%EndPageSetup

%%BeginObject: obj1
bplot

/dpi2point 4.16667 def
portraitMode -1958 3350 csm

    0     0  6400  3191 rc
26 dict begin %Colortable dictionary
/c0 { 0.000000 0.000000 0.000000 sr} bdef
/c1 { 1.000000 1.000000 1.000000 sr} bdef
/c2 { 0.900000 0.000000 0.000000 sr} bdef
/c3 { 0.000000 0.820000 0.000000 sr} bdef
/c4 { 0.000000 0.000000 0.800000 sr} bdef
/c5 { 0.910000 0.820000 0.320000 sr} bdef
/c6 { 1.000000 0.260000 0.820000 sr} bdef
/c7 { 0.000000 0.820000 0.820000 sr} bdef
c0
1 j
1 sg
   0    0 6401 3192 rf
16.6667 w
0 2647 5710 0 0 -2647 623 2754 4 MP
PP
-5710 0 0 2647 5710 0 0 -2647 623 2754 5 MP stroke
11.1111 w
DO
SO
16.6667 w
0 sg
 623 2754 mt 6333 2754 L
 623  107 mt 6333  107 L
 623 2754 mt  623  107 L
6333 2754 mt 6333  107 L
 623 2754 mt 6333 2754 L
 623 2754 mt  623  107 L
1438 2754 mt 1438 2696 L
1438  107 mt 1438  164 L
%%IncludeResource: font Helvetica-Bold
/Helvetica-Bold /ISOLatin1Encoding 166.667 FMSR

1346 2926 mt 
(20) s
2254 2754 mt 2254 2696 L
2254  107 mt 2254  164 L
2162 2926 mt 
(40) s
3070 2754 mt 3070 2696 L
3070  107 mt 3070  164 L
2931 2926 mt 
(100) s
3885 2754 mt 3885 2696 L
3885  107 mt 3885  164 L
3746 2926 mt 
(200) s
4701 2754 mt 4701 2696 L
4701  107 mt 4701  164 L
4562 2926 mt 
(250) s
5517 2754 mt 5517 2696 L
5517  107 mt 5517  164 L
5378 2926 mt 
(400) s
 623 2754 mt  680 2754 L
6333 2754 mt 6275 2754 L
 519 2818 mt 
(0) s
 623 2092 mt  680 2092 L
6333 2092 mt 6275 2092 L
 380 2156 mt 
(0.2) s
 623 1430 mt  680 1430 L
6333 1430 mt 6275 1430 L
 380 1494 mt 
(0.4) s
 623  768 mt  680  768 L
6333  768 mt 6275  768 L
 380  832 mt 
(0.6) s
 623  107 mt  680  107 L
6333  107 mt 6275  107 L
 380  171 mt 
(0.8) s
 623 2754 mt 6333 2754 L
 623  107 mt 6333  107 L
 623 2754 mt  623  107 L
6333 2754 mt 6333  107 L
gs 623 107 5711 2648 rc
0 2369 119 0 0 -2369 1156 2754 4 MP
PP
-119 0 0 2369 119 0 0 -2369 1156 2754 5 MP stroke
0 1161 119 0 0 -1161 1972 2754 4 MP
PP
-119 0 0 1161 119 0 0 -1161 1972 2754 5 MP stroke
0 511 118 0 0 -511 2788 2754 4 MP
PP
-118 0 0 511 118 0 0 -511 2788 2754 5 MP stroke
0 299 118 0 0 -299 3604 2754 4 MP
PP
-118 0 0 299 118 0 0 -299 3604 2754 5 MP stroke
0 230 119 0 0 -230 4419 2754 4 MP
PP
-119 0 0 230 119 0 0 -230 4419 2754 5 MP stroke
0 191 119 0 0 -191 5235 2754 4 MP
PP
-119 0 0 191 119 0 0 -191 5235 2754 5 MP stroke
5710 0 623 2754 2 MP stroke
0.8 sg
0 2296 118 0 0 -2296 1305 2754 4 MP
PP
0 sg
-118 0 0 2296 118 0 0 -2296 1305 2754 5 MP stroke
0.8 sg
0 1017 119 0 0 -1017 2120 2754 4 MP
PP
0 sg
-119 0 0 1017 119 0 0 -1017 2120 2754 5 MP stroke
0.8 sg
0 493 119 0 0 -493 2936 2754 4 MP
PP
0 sg
-119 0 0 493 119 0 0 -493 2936 2754 5 MP stroke
0.8 sg
0 289 119 0 0 -289 3752 2754 4 MP
PP
0 sg
-119 0 0 289 119 0 0 -289 3752 2754 5 MP stroke
0.8 sg
0 204 118 0 0 -204 4568 2754 4 MP
PP
0 sg
-118 0 0 204 118 0 0 -204 4568 2754 5 MP stroke
0.8 sg
0 185 119 0 0 -185 5383 2754 4 MP
PP
0 sg
-119 0 0 185 119 0 0 -185 5383 2754 5 MP stroke
0.7 sg
0 1898 119 0 0 -1898 1453 2754 4 MP
PP
0 sg
-119 0 0 1898 119 0 0 -1898 1453 2754 5 MP stroke
0.7 sg
0 893 118 0 0 -893 2269 2754 4 MP
PP
0 sg
-118 0 0 893 118 0 0 -893 2269 2754 5 MP stroke
0.7 sg
0 412 119 0 0 -412 3084 2754 4 MP
PP
0 sg
-119 0 0 412 119 0 0 -412 3084 2754 5 MP stroke
0.7 sg
0 246 119 0 0 -246 3900 2754 4 MP
PP
0 sg
-119 0 0 246 119 0 0 -246 3900 2754 5 MP stroke
0.7 sg
0 184 119 0 0 -184 4716 2754 4 MP
PP
0 sg
-119 0 0 184 119 0 0 -184 4716 2754 5 MP stroke
0.7 sg
0 161 118 0 0 -161 5532 2754 4 MP
PP
0 sg
-118 0 0 161 118 0 0 -161 5532 2754 5 MP stroke
1 sg
0 1663 119 0 0 -1663 1601 2754 4 MP
PP
0 sg
-119 0 0 1663 119 0 0 -1663 1601 2754 5 MP stroke
1 sg
0 863 119 0 0 -863 2417 2754 4 MP
PP
0 sg
-119 0 0 863 119 0 0 -863 2417 2754 5 MP stroke
1 sg
0 364 118 0 0 -364 3233 2754 4 MP
PP
0 sg
-118 0 0 364 118 0 0 -364 3233 2754 5 MP stroke
1 sg
0 220 118 0 0 -220 4049 2754 4 MP
PP
0 sg
-118 0 0 220 118 0 0 -220 4049 2754 5 MP stroke
1 sg
0 177 119 0 0 -177 4864 2754 4 MP
PP
0 sg
-119 0 0 177 119 0 0 -177 4864 2754 5 MP stroke
1 sg
0 146 119 0 0 -146 5680 2754 4 MP
PP
0 sg
-119 0 0 146 119 0 0 -146 5680 2754 5 MP stroke
gr

2469 3068 mt 
(Transmission rate \(kbit/s\)) s
 322 2410 mt  -90 rotate
(Energy per packet \(mAs\)) s
90 rotate
 600 2816 mt 
( ) s
6311  168 mt 
( ) s
1 sg
0 890 876 0 0 -890 5355 1134 4 MP
PP
-876 0 0 890 876 0 0 -890 5355 1134 5 MP stroke
11.1111 w
DO
SO
16.6667 w
0 sg
5355 1134 mt 6231 1134 L
5355  244 mt 6231  244 L
5355 1134 mt 5355  244 L
6231 1134 mt 6231  244 L
5355 1134 mt 6231 1134 L
5355 1134 mt 5355  244 L
5355 1134 mt 6231 1134 L
5355  244 mt 6231  244 L
5355 1134 mt 5355  244 L
6231 1134 mt 6231  244 L
5524  422 mt 
(4 dBm) s
gs 5355 244 877 891 rc
-130 0 0 171 130 0 0 -171 5380 446 5 MP
PP
2.08333 w
0 0 -130 0 0 171 130 0 0 -171 5380 446 6 MP stroke
gr

2.08333 w
5524  641 mt 
(0 dBm) s
gs 5355 244 877 891 rc
0.8 sg
-130 0 0 172 130 0 0 -172 5380 665 5 MP
PP
0 sg
0 0 -130 0 0 172 130 0 0 -172 5380 665 6 MP stroke
gr

5524  860 mt 
(-4 dBm) s
gs 5355 244 877 891 rc
0.7 sg
-130 0 0 172 130 0 0 -172 5380 884 5 MP
PP
0 sg
0 0 -130 0 0 172 130 0 0 -172 5380 884 6 MP stroke
gr

5524 1079 mt 
(-11 dBm) s
gs 5355 244 877 891 rc
1 sg
-130 0 0 171 130 0 0 -171 5380 1102 5 MP
PP
0 sg
0 0 -130 0 0 171 130 0 0 -171 5380 1102 6 MP stroke
16.6667 w
gr

16.6667 w

end %%Color Dict

eplot
%%EndObject

epage
end

showpage

%%Trailer
%%EOF
