%!PS-Adobe-3.0 EPSF-3.0
%%Creator: MATLAB, The Mathworks, Inc. Version 7.7.0.471 (R2008b). Operating System: Linux 2.6.18-92.1.22.el5xen #1 SMP Tue Dec 16 12:26:32 EST 2008 x86_64.
%%Title: /home/lauril/tinymulleart/send50b.eps
%%CreationDate: 10/30/2009  18:11:09
%%DocumentNeededFonts: Helvetica
%%DocumentProcessColors: Cyan Magenta Yellow Black
%%LanguageLevel: 2
%%Pages: 1
%%BoundingBox:   -44   162   641   678
%%EndComments

%%BeginProlog
% MathWorks dictionary
/MathWorks 160 dict begin
% definition operators
/bdef {bind def} bind def
/ldef {load def} bind def
/xdef {exch def} bdef
/xstore {exch store} bdef
% operator abbreviations
/c  /clip ldef
/cc /concat ldef
/cp /closepath ldef
/gr /grestore ldef
/gs /gsave ldef
/mt /moveto ldef
/np /newpath ldef
/cm /currentmatrix ldef
/sm /setmatrix ldef
/rm /rmoveto ldef
/rl /rlineto ldef
/s {show newpath} bdef
/sc {setcmykcolor} bdef
/sr /setrgbcolor ldef
/sg /setgray ldef
/w /setlinewidth ldef
/j /setlinejoin ldef
/cap /setlinecap ldef
/rc {rectclip} bdef
/rf {rectfill} bdef
% page state control
/pgsv () def
/bpage {/pgsv save def} bdef
/epage {pgsv restore} bdef
/bplot /gsave ldef
/eplot {stroke grestore} bdef
% orientation switch
/portraitMode 0 def /landscapeMode 1 def /rotateMode 2 def
% coordinate system mappings
/dpi2point 0 def
% font control
/FontSize 0 def
/FMS {/FontSize xstore findfont [FontSize 0 0 FontSize neg 0 0]
  makefont setfont} bdef
/reencode {exch dup where {pop load} {pop StandardEncoding} ifelse
  exch dup 3 1 roll findfont dup length dict begin
  { 1 index /FID ne {def}{pop pop} ifelse } forall
  /Encoding exch def currentdict end definefont pop} bdef
/isroman {findfont /CharStrings get /Agrave known} bdef
/FMSR {3 1 roll 1 index dup isroman {reencode} {pop pop} ifelse
  exch FMS} bdef
/csm {1 dpi2point div -1 dpi2point div scale neg translate
 dup landscapeMode eq {pop -90 rotate}
  {rotateMode eq {90 rotate} if} ifelse} bdef
% line types: solid, dotted, dashed, dotdash
/SO { [] 0 setdash } bdef
/DO { [.5 dpi2point mul 4 dpi2point mul] 0 setdash } bdef
/DA { [6 dpi2point mul] 0 setdash } bdef
/DD { [.5 dpi2point mul 4 dpi2point mul 6 dpi2point mul 4
  dpi2point mul] 0 setdash } bdef
% macros for lines and objects
/L {lineto stroke} bdef
/MP {3 1 roll moveto 1 sub {rlineto} repeat} bdef
/AP {{rlineto} repeat} bdef
/PDlw -1 def
/W {/PDlw currentlinewidth def setlinewidth} def
/PP {closepath eofill} bdef
/DP {closepath stroke} bdef
/MR {4 -2 roll moveto dup  0 exch rlineto exch 0 rlineto
  neg 0 exch rlineto closepath} bdef
/FR {MR stroke} bdef
/PR {MR fill} bdef
/L1i {{currentfile picstr readhexstring pop} image} bdef
/tMatrix matrix def
/MakeOval {newpath tMatrix currentmatrix pop translate scale
0 0 1 0 360 arc tMatrix setmatrix} bdef
/FO {MakeOval stroke} bdef
/PO {MakeOval fill} bdef
/PD {currentlinewidth 2 div 0 360 arc fill
   PDlw -1 eq not {PDlw w /PDlw -1 def} if} def
/FA {newpath tMatrix currentmatrix pop translate scale
  0 0 1 5 -2 roll arc tMatrix setmatrix stroke} bdef
/PA {newpath tMatrix currentmatrix pop	translate 0 0 moveto scale
  0 0 1 5 -2 roll arc closepath tMatrix setmatrix fill} bdef
/FAn {newpath tMatrix currentmatrix pop translate scale
  0 0 1 5 -2 roll arcn tMatrix setmatrix stroke} bdef
/PAn {newpath tMatrix currentmatrix pop translate 0 0 moveto scale
  0 0 1 5 -2 roll arcn closepath tMatrix setmatrix fill} bdef
/vradius 0 def /hradius 0 def /lry 0 def
/lrx 0 def /uly 0 def /ulx 0 def /rad 0 def
/MRR {/vradius xdef /hradius xdef /lry xdef /lrx xdef /uly xdef
  /ulx xdef newpath tMatrix currentmatrix pop ulx hradius add uly
  vradius add translate hradius vradius scale 0 0 1 180 270 arc 
  tMatrix setmatrix lrx hradius sub uly vradius add translate
  hradius vradius scale 0 0 1 270 360 arc tMatrix setmatrix
  lrx hradius sub lry vradius sub translate hradius vradius scale
  0 0 1 0 90 arc tMatrix setmatrix ulx hradius add lry vradius sub
  translate hradius vradius scale 0 0 1 90 180 arc tMatrix setmatrix
  closepath} bdef
/FRR {MRR stroke } bdef
/PRR {MRR fill } bdef
/MlrRR {/lry xdef /lrx xdef /uly xdef /ulx xdef /rad lry uly sub 2 div def
  newpath tMatrix currentmatrix pop ulx rad add uly rad add translate
  rad rad scale 0 0 1 90 270 arc tMatrix setmatrix lrx rad sub lry rad
  sub translate rad rad scale 0 0 1 270 90 arc tMatrix setmatrix
  closepath} bdef
/FlrRR {MlrRR stroke } bdef
/PlrRR {MlrRR fill } bdef
/MtbRR {/lry xdef /lrx xdef /uly xdef /ulx xdef /rad lrx ulx sub 2 div def
  newpath tMatrix currentmatrix pop ulx rad add uly rad add translate
  rad rad scale 0 0 1 180 360 arc tMatrix setmatrix lrx rad sub lry rad
  sub translate rad rad scale 0 0 1 0 180 arc tMatrix setmatrix
  closepath} bdef
/FtbRR {MtbRR stroke } bdef
/PtbRR {MtbRR fill } bdef
/stri 6 array def /dtri 6 array def
/smat 6 array def /dmat 6 array def
/tmat1 6 array def /tmat2 6 array def /dif 3 array def
/asub {/ind2 exch def /ind1 exch def dup dup
  ind1 get exch ind2 get sub exch } bdef
/tri_to_matrix {
  2 0 asub 3 1 asub 4 0 asub 5 1 asub
  dup 0 get exch 1 get 7 -1 roll astore } bdef
/compute_transform {
  dmat dtri tri_to_matrix tmat1 invertmatrix 
  smat stri tri_to_matrix tmat2 concatmatrix } bdef
/ds {stri astore pop} bdef
/dt {dtri astore pop} bdef
/db {2 copy /cols xdef /rows xdef mul dup 3 mul string
  currentfile 
  3 index 0 eq {/ASCIIHexDecode filter}
  {/ASCII85Decode filter 3 index 2 eq {/RunLengthDecode filter} if }
  ifelse exch readstring pop
  dup 0 3 index getinterval /rbmap xdef
  dup 2 index dup getinterval /gbmap xdef
  1 index dup 2 mul exch getinterval /bbmap xdef pop pop}bdef
/it {gs np dtri aload pop moveto lineto lineto cp c
  cols rows 8 compute_transform 
  rbmap gbmap bbmap true 3 colorimage gr}bdef
/il {newpath moveto lineto stroke}bdef
currentdict end def
%%EndProlog

%%BeginSetup
MathWorks begin

0 cap

end
%%EndSetup

%%Page: 1 1
%%BeginPageSetup
%%PageBoundingBox:   -44   162   641   678
MathWorks begin
bpage
%%EndPageSetup

%%BeginObject: obj1
bplot

/dpi2point 12 def
portraitMode -0528 8136 csm

    0     0  8227  6184 rc
85 dict begin %Colortable dictionary
/c0 { 0.000000 0.000000 0.000000 sr} bdef
/c1 { 1.000000 1.000000 1.000000 sr} bdef
/c2 { 0.900000 0.000000 0.000000 sr} bdef
/c3 { 0.000000 0.820000 0.000000 sr} bdef
/c4 { 0.000000 0.000000 0.800000 sr} bdef
/c5 { 0.910000 0.820000 0.320000 sr} bdef
/c6 { 1.000000 0.260000 0.820000 sr} bdef
/c7 { 0.000000 0.820000 0.820000 sr} bdef
c0
1 j
1 sg
   0    0 8228 6185 rf
6 w
0 5041 6375 0 0 -5041 1070 5504 4 MP
PP
-6375 0 0 5041 6375 0 0 -5041 1070 5504 5 MP stroke
4 w
DO
SO
6 w
0 sg
1070 5504 mt 7445 5504 L
1070  463 mt 7445  463 L
1070 5504 mt 1070  463 L
7445 5504 mt 7445  463 L
1070 5504 mt 7445 5504 L
1070 5504 mt 1070  463 L
1550 5504 mt 1550 5440 L
1550  464 mt 1550  527 L
%%IncludeResource: font Helvetica
/Helvetica /ISOLatin1Encoding 120 FMSR

1434 5649 mt 
(1.02) s
2434 5504 mt 2434 5440 L
2434  464 mt 2434  527 L
2284 5649 mt 
(1.022) s
3318 5504 mt 3318 5440 L
3318  464 mt 3318  527 L
3168 5649 mt 
(1.024) s
4203 5504 mt 4203 5440 L
4203  464 mt 4203  527 L
4053 5649 mt 
(1.026) s
5087 5504 mt 5087 5440 L
5087  464 mt 5087  527 L
4937 5649 mt 
(1.028) s
5971 5504 mt 5971 5440 L
5971  464 mt 5971  527 L
5855 5649 mt 
(1.03) s
6855 5504 mt 6855 5440 L
6855  464 mt 6855  527 L
6705 5649 mt 
(1.032) s
7175 5851 mt 
(x 10) s
%%IncludeResource: font Helvetica
/Helvetica /ISOLatin1Encoding 80 FMSR

7401 5777 mt 
(4) s
1070 5315 mt 1133 5315 L
7445 5315 mt 7381 5315 L
%%IncludeResource: font Helvetica
/Helvetica /ISOLatin1Encoding 120 FMSR

 899 5359 mt 
(-2) s
1070 4826 mt 1133 4826 L
7445 4826 mt 7381 4826 L
 969 4870 mt 
(0) s
1070 4336 mt 1133 4336 L
7445 4336 mt 7381 4336 L
 969 4380 mt 
(2) s
1070 3847 mt 1133 3847 L
7445 3847 mt 7381 3847 L
 969 3891 mt 
(4) s
1070 3357 mt 1133 3357 L
7445 3357 mt 7381 3357 L
 969 3401 mt 
(6) s
1070 2868 mt 1133 2868 L
7445 2868 mt 7381 2868 L
 969 2912 mt 
(8) s
1070 2378 mt 1133 2378 L
7445 2378 mt 7381 2378 L
 902 2422 mt 
(10) s
1070 1889 mt 1133 1889 L
7445 1889 mt 7381 1889 L
 902 1933 mt 
(12) s
1070 1399 mt 1133 1399 L
7445 1399 mt 7381 1399 L
 902 1443 mt 
(14) s
1070  909 mt 1133  909 L
7445  909 mt 7381  909 L
 902  953 mt 
(16) s
1070 5504 mt 7445 5504 L
1070  463 mt 7445  463 L
1070 5504 mt 1070  463 L
7445 5504 mt 7445  463 L
gs 1070 464 6376 5041 rc
/c8 { 0.000000 0.000000 1.000000 sr} bdef
c8
16 1 44 -6 44 6 44 2 45 -14 44 2 44 -3 44 7 
44 6 45 -8 44 -3 44 13 44 -21 45 14 44 -38 44 64 
44 -34 44 502 45 3085 44 328 44 -64 44 33 44 -17 45 12 
44 -8 44 5 44 -4 45 3 44 -2 44 1 44 0 44 0 
45 0 44 0 44 0 44 0 44 0 45 0 44 0 44 0 
44 0 44 0 45 0 44 0 44 0 44 0 45 0 44 0 
44 0 44 0 44 0 45 0 44 0 44 0 44 0 44 0 
45 0 44 0 44 0 44 0 45 0 44 0 44 0 44 0 
44 0 45 0 44 0 44 0 44 0 44 0 45 0 44 0 
44 0 44 0 44 0 45 0 44 0 44 0 44 0 45 0 
44 0 44 0 44 0 44 0 45 0 44 0 44 0 44 0 
44 0 45 0 44 0 44 0 44 0 45 0 44 0 44 0 
44 0 44 0 45 0 44 1 44 -3 44 5 44 -8 45 13 
44 -21 44 32 44 -48 44 73 45 -112 44 179 44 -396 44 0 
45 -264 44 -719 44 91 44 527 44 -305 45 -1530 44 270 44 2040 
44 126 44 188 45 -818 44 715 44 -1574 44 -2681 45 546 44 -301 
44 187 44 -127 44 95 45 -56 44 39 44 -19 44 4 44 -17 
45 25 44 -6 44 -11 44 16 44 -5 45 3 44 -29 44 -4 
38 34 1070 4679 146 MP stroke
gr

c8

end %%Color Dict

eplot
%%EndObject

epage
end

showpage

%%Trailer
%%EOF
