%!PS-Adobe-3.0 EPSF-3.0
%%Creator: MATLAB, The Mathworks, Inc. Version 7.7.0.471 (R2008b). Operating System: Linux 2.6.18-92.1.22.el5xen #1 SMP Tue Dec 16 12:26:32 EST 2008 x86_64.
%%Title: /home/lauril/tinymulleart/send1b.eps
%%CreationDate: 10/30/2009  18:06:03
%%DocumentNeededFonts: Helvetica
%%DocumentProcessColors: Cyan Magenta Yellow Black
%%LanguageLevel: 2
%%Pages: 1
%%BoundingBox:   -34   190   630   651
%%EndComments

%%BeginProlog
% MathWorks dictionary
/MathWorks 160 dict begin
% definition operators
/bdef {bind def} bind def
/ldef {load def} bind def
/xdef {exch def} bdef
/xstore {exch store} bdef
% operator abbreviations
/c  /clip ldef
/cc /concat ldef
/cp /closepath ldef
/gr /grestore ldef
/gs /gsave ldef
/mt /moveto ldef
/np /newpath ldef
/cm /currentmatrix ldef
/sm /setmatrix ldef
/rm /rmoveto ldef
/rl /rlineto ldef
/s {show newpath} bdef
/sc {setcmykcolor} bdef
/sr /setrgbcolor ldef
/sg /setgray ldef
/w /setlinewidth ldef
/j /setlinejoin ldef
/cap /setlinecap ldef
/rc {rectclip} bdef
/rf {rectfill} bdef
% page state control
/pgsv () def
/bpage {/pgsv save def} bdef
/epage {pgsv restore} bdef
/bplot /gsave ldef
/eplot {stroke grestore} bdef
% orientation switch
/portraitMode 0 def /landscapeMode 1 def /rotateMode 2 def
% coordinate system mappings
/dpi2point 0 def
% font control
/FontSize 0 def
/FMS {/FontSize xstore findfont [FontSize 0 0 FontSize neg 0 0]
  makefont setfont} bdef
/reencode {exch dup where {pop load} {pop StandardEncoding} ifelse
  exch dup 3 1 roll findfont dup length dict begin
  { 1 index /FID ne {def}{pop pop} ifelse } forall
  /Encoding exch def currentdict end definefont pop} bdef
/isroman {findfont /CharStrings get /Agrave known} bdef
/FMSR {3 1 roll 1 index dup isroman {reencode} {pop pop} ifelse
  exch FMS} bdef
/csm {1 dpi2point div -1 dpi2point div scale neg translate
 dup landscapeMode eq {pop -90 rotate}
  {rotateMode eq {90 rotate} if} ifelse} bdef
% line types: solid, dotted, dashed, dotdash
/SO { [] 0 setdash } bdef
/DO { [.5 dpi2point mul 4 dpi2point mul] 0 setdash } bdef
/DA { [6 dpi2point mul] 0 setdash } bdef
/DD { [.5 dpi2point mul 4 dpi2point mul 6 dpi2point mul 4
  dpi2point mul] 0 setdash } bdef
% macros for lines and objects
/L {lineto stroke} bdef
/MP {3 1 roll moveto 1 sub {rlineto} repeat} bdef
/AP {{rlineto} repeat} bdef
/PDlw -1 def
/W {/PDlw currentlinewidth def setlinewidth} def
/PP {closepath eofill} bdef
/DP {closepath stroke} bdef
/MR {4 -2 roll moveto dup  0 exch rlineto exch 0 rlineto
  neg 0 exch rlineto closepath} bdef
/FR {MR stroke} bdef
/PR {MR fill} bdef
/L1i {{currentfile picstr readhexstring pop} image} bdef
/tMatrix matrix def
/MakeOval {newpath tMatrix currentmatrix pop translate scale
0 0 1 0 360 arc tMatrix setmatrix} bdef
/FO {MakeOval stroke} bdef
/PO {MakeOval fill} bdef
/PD {currentlinewidth 2 div 0 360 arc fill
   PDlw -1 eq not {PDlw w /PDlw -1 def} if} def
/FA {newpath tMatrix currentmatrix pop translate scale
  0 0 1 5 -2 roll arc tMatrix setmatrix stroke} bdef
/PA {newpath tMatrix currentmatrix pop	translate 0 0 moveto scale
  0 0 1 5 -2 roll arc closepath tMatrix setmatrix fill} bdef
/FAn {newpath tMatrix currentmatrix pop translate scale
  0 0 1 5 -2 roll arcn tMatrix setmatrix stroke} bdef
/PAn {newpath tMatrix currentmatrix pop translate 0 0 moveto scale
  0 0 1 5 -2 roll arcn closepath tMatrix setmatrix fill} bdef
/vradius 0 def /hradius 0 def /lry 0 def
/lrx 0 def /uly 0 def /ulx 0 def /rad 0 def
/MRR {/vradius xdef /hradius xdef /lry xdef /lrx xdef /uly xdef
  /ulx xdef newpath tMatrix currentmatrix pop ulx hradius add uly
  vradius add translate hradius vradius scale 0 0 1 180 270 arc 
  tMatrix setmatrix lrx hradius sub uly vradius add translate
  hradius vradius scale 0 0 1 270 360 arc tMatrix setmatrix
  lrx hradius sub lry vradius sub translate hradius vradius scale
  0 0 1 0 90 arc tMatrix setmatrix ulx hradius add lry vradius sub
  translate hradius vradius scale 0 0 1 90 180 arc tMatrix setmatrix
  closepath} bdef
/FRR {MRR stroke } bdef
/PRR {MRR fill } bdef
/MlrRR {/lry xdef /lrx xdef /uly xdef /ulx xdef /rad lry uly sub 2 div def
  newpath tMatrix currentmatrix pop ulx rad add uly rad add translate
  rad rad scale 0 0 1 90 270 arc tMatrix setmatrix lrx rad sub lry rad
  sub translate rad rad scale 0 0 1 270 90 arc tMatrix setmatrix
  closepath} bdef
/FlrRR {MlrRR stroke } bdef
/PlrRR {MlrRR fill } bdef
/MtbRR {/lry xdef /lrx xdef /uly xdef /ulx xdef /rad lrx ulx sub 2 div def
  newpath tMatrix currentmatrix pop ulx rad add uly rad add translate
  rad rad scale 0 0 1 180 360 arc tMatrix setmatrix lrx rad sub lry rad
  sub translate rad rad scale 0 0 1 0 180 arc tMatrix setmatrix
  closepath} bdef
/FtbRR {MtbRR stroke } bdef
/PtbRR {MtbRR fill } bdef
/stri 6 array def /dtri 6 array def
/smat 6 array def /dmat 6 array def
/tmat1 6 array def /tmat2 6 array def /dif 3 array def
/asub {/ind2 exch def /ind1 exch def dup dup
  ind1 get exch ind2 get sub exch } bdef
/tri_to_matrix {
  2 0 asub 3 1 asub 4 0 asub 5 1 asub
  dup 0 get exch 1 get 7 -1 roll astore } bdef
/compute_transform {
  dmat dtri tri_to_matrix tmat1 invertmatrix 
  smat stri tri_to_matrix tmat2 concatmatrix } bdef
/ds {stri astore pop} bdef
/dt {dtri astore pop} bdef
/db {2 copy /cols xdef /rows xdef mul dup 3 mul string
  currentfile 
  3 index 0 eq {/ASCIIHexDecode filter}
  {/ASCII85Decode filter 3 index 2 eq {/RunLengthDecode filter} if }
  ifelse exch readstring pop
  dup 0 3 index getinterval /rbmap xdef
  dup 2 index dup getinterval /gbmap xdef
  1 index dup 2 mul exch getinterval /bbmap xdef pop pop}bdef
/it {gs np dtri aload pop moveto lineto lineto cp c
  cols rows 8 compute_transform 
  rbmap gbmap bbmap true 3 colorimage gr}bdef
/il {newpath moveto lineto stroke}bdef
currentdict end def
%%EndProlog

%%BeginSetup
MathWorks begin

0 cap

end
%%EndSetup

%%Page: 1 1
%%BeginPageSetup
%%PageBoundingBox:   -34   190   630   651
MathWorks begin
bpage
%%EndPageSetup

%%BeginObject: obj1
bplot

/dpi2point 12 def
portraitMode -0408 7812 csm

    0     0  7968  5522 rc
85 dict begin %Colortable dictionary
/c0 { 0.000000 0.000000 0.000000 sr} bdef
/c1 { 1.000000 1.000000 1.000000 sr} bdef
/c2 { 0.900000 0.000000 0.000000 sr} bdef
/c3 { 0.000000 0.820000 0.000000 sr} bdef
/c4 { 0.000000 0.000000 0.800000 sr} bdef
/c5 { 0.910000 0.820000 0.320000 sr} bdef
/c6 { 1.000000 0.260000 0.820000 sr} bdef
/c7 { 0.000000 0.820000 0.820000 sr} bdef
c0
1 j
1 sg
   0    0 7969 5523 rf
6 w
0 4501 6174 0 0 -4501 1036 4915 4 MP
PP
-6174 0 0 4501 6174 0 0 -4501 1036 4915 5 MP stroke
4 w
DO
SO
6 w
0 sg
1036 4915 mt 7210 4915 L
1036  414 mt 7210  414 L
1036 4915 mt 1036  414 L
7210 4915 mt 7210  414 L
1036 4915 mt 7210 4915 L
1036 4915 mt 1036  414 L
1404 4915 mt 1404 4853 L
1404  414 mt 1404  475 L
%%IncludeResource: font Helvetica
/Helvetica /ISOLatin1Encoding 120 FMSR

1254 5060 mt 
(1.073) s
2238 4915 mt 2238 4853 L
2238  414 mt 2238  475 L
2088 5060 mt 
(1.074) s
3072 4915 mt 3072 4853 L
3072  414 mt 3072  475 L
2922 5060 mt 
(1.075) s
3906 4915 mt 3906 4853 L
3906  414 mt 3906  475 L
3756 5060 mt 
(1.076) s
4740 4915 mt 4740 4853 L
4740  414 mt 4740  475 L
4590 5060 mt 
(1.077) s
5574 4915 mt 5574 4853 L
5574  414 mt 5574  475 L
5424 5060 mt 
(1.078) s
6408 4915 mt 6408 4853 L
6408  414 mt 6408  475 L
6258 5060 mt 
(1.079) s
6941 5262 mt 
(x 10) s
%%IncludeResource: font Helvetica
/Helvetica /ISOLatin1Encoding 80 FMSR

7167 5188 mt 
(4) s
1036 4707 mt 1097 4707 L
7211 4707 mt 7149 4707 L
%%IncludeResource: font Helvetica
/Helvetica /ISOLatin1Encoding 120 FMSR

 935 4751 mt 
(0) s
1036 4220 mt 1097 4220 L
7211 4220 mt 7149 4220 L
 935 4264 mt 
(2) s
1036 3733 mt 1097 3733 L
7211 3733 mt 7149 3733 L
 935 3777 mt 
(4) s
1036 3246 mt 1097 3246 L
7211 3246 mt 7149 3246 L
 935 3290 mt 
(6) s
1036 2759 mt 1097 2759 L
7211 2759 mt 7149 2759 L
 935 2803 mt 
(8) s
1036 2272 mt 1097 2272 L
7211 2272 mt 7149 2272 L
 868 2316 mt 
(10) s
1036 1786 mt 1097 1786 L
7211 1786 mt 7149 1786 L
 868 1830 mt 
(12) s
1036 1299 mt 1097 1299 L
7211 1299 mt 7149 1299 L
 868 1343 mt 
(14) s
1036  812 mt 1097  812 L
7211  812 mt 7149  812 L
 868  856 mt 
(16) s
1036 4915 mt 7210 4915 L
1036  414 mt 7210  414 L
1036 4915 mt 1036  414 L
7210 4915 mt 7210  414 L
gs 1036 414 6176 4502 rc
/c8 { 0.000000 0.000000 1.000000 sr} bdef
c8
54 0 83 14 83 -12 84 14 83 -20 84 51 83 -102 84 151 
83 -222 83 1133 84 2902 83 -127 84 107 83 -71 83 49 84 -33 
83 22 84 -14 83 9 83 -6 84 3 83 -1 84 0 83 0 
83 0 84 0 83 0 84 0 83 0 83 0 84 0 83 0 
84 0 83 0 83 0 84 0 83 0 84 0 83 1 83 -2 
84 3 83 -5 84 9 83 -15 83 24 84 -37 83 54 84 -84 
83 128 83 -265 84 35 83 -538 84 -518 83 41 83 498 84 -212 
83 -1410 84 -129 83 1944 83 500 84 74 83 -604 84 193 83 -364 
83 -3322 84 279 83 -204 84 124 83 -57 83 46 84 -36 83 19 
84 -17 83 2 34 3 1036 4579 76 MP stroke
gr

c8
0 sg
1019 4958 mt 
( ) s
7195  456 mt 
( ) s

end %%Color Dict

eplot
%%EndObject

epage
end

showpage

%%Trailer
%%EOF
