%!PS-Adobe-3.0 EPSF-3.0
%%Creator: MATLAB, The Mathworks, Inc. Version 7.7.0.471 (R2008b). Operating System: Linux 2.6.18-92.1.22.el5xen #1 SMP Tue Dec 16 12:26:32 EST 2008 x86_64.
%%Title: /home/lauril/tinymulleart/send_1_50_100.eps
%%CreationDate: 10/30/2009  20:51:05
%%DocumentNeededFonts: Helvetica
%%DocumentProcessColors: Cyan Magenta Yellow Black
%%LanguageLevel: 2
%%Pages: 1
%%BoundingBox:  -227   209   823   633
%%EndComments

%%BeginProlog
% MathWorks dictionary
/MathWorks 160 dict begin
% definition operators
/bdef {bind def} bind def
/ldef {load def} bind def
/xdef {exch def} bdef
/xstore {exch store} bdef
% operator abbreviations
/c  /clip ldef
/cc /concat ldef
/cp /closepath ldef
/gr /grestore ldef
/gs /gsave ldef
/mt /moveto ldef
/np /newpath ldef
/cm /currentmatrix ldef
/sm /setmatrix ldef
/rm /rmoveto ldef
/rl /rlineto ldef
/s {show newpath} bdef
/sc {setcmykcolor} bdef
/sr /setrgbcolor ldef
/sg /setgray ldef
/w /setlinewidth ldef
/j /setlinejoin ldef
/cap /setlinecap ldef
/rc {rectclip} bdef
/rf {rectfill} bdef
% page state control
/pgsv () def
/bpage {/pgsv save def} bdef
/epage {pgsv restore} bdef
/bplot /gsave ldef
/eplot {stroke grestore} bdef
% orientation switch
/portraitMode 0 def /landscapeMode 1 def /rotateMode 2 def
% coordinate system mappings
/dpi2point 0 def
% font control
/FontSize 0 def
/FMS {/FontSize xstore findfont [FontSize 0 0 FontSize neg 0 0]
  makefont setfont} bdef
/reencode {exch dup where {pop load} {pop StandardEncoding} ifelse
  exch dup 3 1 roll findfont dup length dict begin
  { 1 index /FID ne {def}{pop pop} ifelse } forall
  /Encoding exch def currentdict end definefont pop} bdef
/isroman {findfont /CharStrings get /Agrave known} bdef
/FMSR {3 1 roll 1 index dup isroman {reencode} {pop pop} ifelse
  exch FMS} bdef
/csm {1 dpi2point div -1 dpi2point div scale neg translate
 dup landscapeMode eq {pop -90 rotate}
  {rotateMode eq {90 rotate} if} ifelse} bdef
% line types: solid, dotted, dashed, dotdash
/SO { [] 0 setdash } bdef
/DO { [.5 dpi2point mul 4 dpi2point mul] 0 setdash } bdef
/DA { [6 dpi2point mul] 0 setdash } bdef
/DD { [.5 dpi2point mul 4 dpi2point mul 6 dpi2point mul 4
  dpi2point mul] 0 setdash } bdef
% macros for lines and objects
/L {lineto stroke} bdef
/MP {3 1 roll moveto 1 sub {rlineto} repeat} bdef
/AP {{rlineto} repeat} bdef
/PDlw -1 def
/W {/PDlw currentlinewidth def setlinewidth} def
/PP {closepath eofill} bdef
/DP {closepath stroke} bdef
/MR {4 -2 roll moveto dup  0 exch rlineto exch 0 rlineto
  neg 0 exch rlineto closepath} bdef
/FR {MR stroke} bdef
/PR {MR fill} bdef
/L1i {{currentfile picstr readhexstring pop} image} bdef
/tMatrix matrix def
/MakeOval {newpath tMatrix currentmatrix pop translate scale
0 0 1 0 360 arc tMatrix setmatrix} bdef
/FO {MakeOval stroke} bdef
/PO {MakeOval fill} bdef
/PD {currentlinewidth 2 div 0 360 arc fill
   PDlw -1 eq not {PDlw w /PDlw -1 def} if} def
/FA {newpath tMatrix currentmatrix pop translate scale
  0 0 1 5 -2 roll arc tMatrix setmatrix stroke} bdef
/PA {newpath tMatrix currentmatrix pop	translate 0 0 moveto scale
  0 0 1 5 -2 roll arc closepath tMatrix setmatrix fill} bdef
/FAn {newpath tMatrix currentmatrix pop translate scale
  0 0 1 5 -2 roll arcn tMatrix setmatrix stroke} bdef
/PAn {newpath tMatrix currentmatrix pop translate 0 0 moveto scale
  0 0 1 5 -2 roll arcn closepath tMatrix setmatrix fill} bdef
/vradius 0 def /hradius 0 def /lry 0 def
/lrx 0 def /uly 0 def /ulx 0 def /rad 0 def
/MRR {/vradius xdef /hradius xdef /lry xdef /lrx xdef /uly xdef
  /ulx xdef newpath tMatrix currentmatrix pop ulx hradius add uly
  vradius add translate hradius vradius scale 0 0 1 180 270 arc 
  tMatrix setmatrix lrx hradius sub uly vradius add translate
  hradius vradius scale 0 0 1 270 360 arc tMatrix setmatrix
  lrx hradius sub lry vradius sub translate hradius vradius scale
  0 0 1 0 90 arc tMatrix setmatrix ulx hradius add lry vradius sub
  translate hradius vradius scale 0 0 1 90 180 arc tMatrix setmatrix
  closepath} bdef
/FRR {MRR stroke } bdef
/PRR {MRR fill } bdef
/MlrRR {/lry xdef /lrx xdef /uly xdef /ulx xdef /rad lry uly sub 2 div def
  newpath tMatrix currentmatrix pop ulx rad add uly rad add translate
  rad rad scale 0 0 1 90 270 arc tMatrix setmatrix lrx rad sub lry rad
  sub translate rad rad scale 0 0 1 270 90 arc tMatrix setmatrix
  closepath} bdef
/FlrRR {MlrRR stroke } bdef
/PlrRR {MlrRR fill } bdef
/MtbRR {/lry xdef /lrx xdef /uly xdef /ulx xdef /rad lrx ulx sub 2 div def
  newpath tMatrix currentmatrix pop ulx rad add uly rad add translate
  rad rad scale 0 0 1 180 360 arc tMatrix setmatrix lrx rad sub lry rad
  sub translate rad rad scale 0 0 1 0 180 arc tMatrix setmatrix
  closepath} bdef
/FtbRR {MtbRR stroke } bdef
/PtbRR {MtbRR fill } bdef
/stri 6 array def /dtri 6 array def
/smat 6 array def /dmat 6 array def
/tmat1 6 array def /tmat2 6 array def /dif 3 array def
/asub {/ind2 exch def /ind1 exch def dup dup
  ind1 get exch ind2 get sub exch } bdef
/tri_to_matrix {
  2 0 asub 3 1 asub 4 0 asub 5 1 asub
  dup 0 get exch 1 get 7 -1 roll astore } bdef
/compute_transform {
  dmat dtri tri_to_matrix tmat1 invertmatrix 
  smat stri tri_to_matrix tmat2 concatmatrix } bdef
/ds {stri astore pop} bdef
/dt {dtri astore pop} bdef
/db {2 copy /cols xdef /rows xdef mul dup 3 mul string
  currentfile 
  3 index 0 eq {/ASCIIHexDecode filter}
  {/ASCII85Decode filter 3 index 2 eq {/RunLengthDecode filter} if }
  ifelse exch readstring pop
  dup 0 3 index getinterval /rbmap xdef
  dup 2 index dup getinterval /gbmap xdef
  1 index dup 2 mul exch getinterval /bbmap xdef pop pop}bdef
/it {gs np dtri aload pop moveto lineto lineto cp c
  cols rows 8 compute_transform 
  rbmap gbmap bbmap true 3 colorimage gr}bdef
/il {newpath moveto lineto stroke}bdef
currentdict end def
%%EndProlog

%%BeginSetup
MathWorks begin

0 cap

end
%%EndSetup

%%Page: 1 1
%%BeginPageSetup
%%PageBoundingBox:  -227   209   823   633
MathWorks begin
bpage
%%EndPageSetup

%%BeginObject: obj1
bplot

/dpi2point 12 def
portraitMode -2724 7596 csm

    0     0 12605  5080 rc
85 dict begin %Colortable dictionary
/c0 { 0.000000 0.000000 0.000000 sr} bdef
/c1 { 1.000000 1.000000 1.000000 sr} bdef
/c2 { 0.900000 0.000000 0.000000 sr} bdef
/c3 { 0.000000 0.820000 0.000000 sr} bdef
/c4 { 0.000000 0.000000 0.800000 sr} bdef
/c5 { 0.910000 0.820000 0.320000 sr} bdef
/c6 { 1.000000 0.260000 0.820000 sr} bdef
/c7 { 0.000000 0.820000 0.820000 sr} bdef
c0
1 j
1 sg
   0    0 12606 5081 rf
6 w
0 4064 9769 0 0 -4064 1639 4445 4 MP
PP
-9769 0 0 4064 9769 0 0 -4064 1639 4445 5 MP stroke
4 w
DO
SO
6 w
0 sg
1639 4445 mt 11408 4445 L
1639 4445 mt 1639  381 L
1639 4445 mt 1639 4347 L
%%IncludeResource: font Helvetica
/Helvetica /ISOLatin1Encoding 288 FMSR

1559 4747 mt 
(0) s
2724 4445 mt 2724 4347 L
2644 4747 mt 
(2) s
3809 4445 mt 3809 4347 L
3729 4747 mt 
(4) s
4895 4445 mt 4895 4347 L
4815 4747 mt 
(6) s
5980 4445 mt 5980 4347 L
5900 4747 mt 
(8) s
7066 4445 mt 7066 4347 L
6906 4747 mt 
(10) s
8151 4445 mt 8151 4347 L
7991 4747 mt 
(12) s
9237 4445 mt 9237 4347 L
9077 4747 mt 
(14) s
10322 4445 mt 10322 4347 L
10162 4747 mt 
(16) s
11408 4445 mt 11408 4347 L
11248 4747 mt 
(18) s
1639 4445 mt 1736 4445 L
1276 4552 mt 
(-5) s
1639 3632 mt 1736 3632 L
1444 3739 mt 
(0) s
1639 2819 mt 1736 2819 L
1444 2926 mt 
(5) s
1639 2006 mt 1736 2006 L
1284 2113 mt 
(10) s
1639 1193 mt 1736 1193 L
1284 1300 mt 
(15) s
1639  381 mt 1736  381 L
1284  488 mt 
(20) s
gs 1639 381 9770 4065 rc
DD
24 w
/c8 { 1.000000 0.000000 0.000000 sr} bdef
c8
55 -4 54 0 54 2 54 7 55 -5 54 0 54 -3 55 3 
54 -2 54 -6 54 -3 55 2 54 9 54 0 54 3 55 -4 
54 -2 54 -3 55 2 54 3 54 -1 54 4 55 2 54 2 
54 -2 54 -2 55 -4 54 3 54 -5 55 0 54 -10 54 12 
54 11 55 -12 54 7 54 3 54 -8 55 -2 54 -1 54 2 
55 -9 54 4 54 3 54 6 55 0 54 0 54 -1 54 -4 
55 -3 54 -10 54 -1 55 14 54 -10 54 8 54 8 55 -2 
54 -4 54 -1 54 -2 55 2 54 -5 54 9 55 2 54 -1 
54 5 54 -2 55 -12 54 2 54 6 54 -11 55 12 54 0 
54 7 55 -10 54 3 54 5 54 -8 55 4 54 -6 54 6 
54 1 55 -7 54 6 54 7 55 -13 54 8 54 -2 54 -1 
55 -7 54 -5 54 16 54 -5 55 2 54 6 54 -8 55 5 
54 -2 54 1 54 -10 55 4 54 -1 54 10 54 -9 55 10 
54 -13 54 33 55 -67 54 100 54 -148 54 756 55 1939 54 -85 
54 71 54 -47 55 33 54 -23 54 15 55 -9 54 6 54 -4 
54 2 55 -1 54 1 54 -1 54 0 55 0 54 0 54 0 
55 0 54 0 54 0 54 0 55 0 54 0 54 0 54 0 
55 0 54 0 54 1 55 -1 54 2 54 -4 54 6 55 -10 
54 16 54 -24 54 36 55 -57 54 86 54 -177 55 23 54 -359 
54 -346 54 28 55 332 54 -142 54 -941 54 -86 55 1298 54 334 
54 49 55 -403 54 129 54 -243 54 -2219 55 187 54 -136 54 82 
54 -38 55 31 54 -24 54 12 54 -11 1639 3550 174 MP stroke
DA
0 sg
55 5 54 -4 54 1 54 -1 55 -12 54 5 54 15 55 -6 
54 4 54 -8 54 -3 55 6 54 0 54 -3 54 -13 55 12 
54 2 54 2 55 -9 54 3 54 12 54 2 55 -3 54 2 
54 0 54 5 55 -4 54 -2 54 3 55 0 54 2 54 -2 
54 -19 55 -12 54 3 54 17 54 -5 55 7 54 2 54 1 
55 -4 54 4 54 1 54 -9 55 1 54 -2 54 5 54 4 
55 -6 54 -2 54 9 55 -14 54 10 54 -26 54 43 55 -22 
54 333 54 2049 54 217 55 -42 54 22 54 -11 55 8 54 -6 
54 4 54 -3 55 2 54 -1 54 1 54 -1 55 0 54 0 
54 0 55 0 54 0 54 0 54 0 55 0 54 0 54 0 
54 0 55 0 54 0 54 0 55 0 54 0 54 0 54 0 
55 0 54 0 54 0 54 0 55 0 54 0 54 0 55 0 
54 0 54 0 54 0 55 0 54 0 54 0 54 0 55 0 
54 0 54 0 55 0 54 0 54 0 54 0 55 0 54 0 
54 0 54 0 55 0 54 0 54 0 55 0 54 0 54 0 
54 0 55 0 54 0 54 0 54 0 55 0 54 0 54 0 
55 0 54 0 54 0 54 0 55 0 54 0 54 0 54 0 
55 0 54 0 54 1 55 -2 54 3 54 -5 54 9 55 -14 
54 21 54 -32 54 49 55 -75 54 119 54 -263 55 0 54 -175 
54 -478 54 61 55 349 54 -202 54 -1016 54 180 55 1354 54 84 
54 125 55 -543 54 474 54 -1045 54 -1781 55 363 54 -200 54 124 
54 -84 55 63 54 -37 54 26 54 -13 1639 3541 174 MP stroke
SO
/c9 { 0.000000 0.000000 1.000000 sr} bdef
c9
55 5 54 3 54 -5 54 6 55 -11 54 10 54 -24 55 31 
54 -54 54 108 54 -10 55 1923 54 706 54 -182 54 104 55 -63 
54 44 54 -30 55 20 54 -13 54 9 54 -6 55 3 54 -1 
54 1 54 -1 55 0 54 0 54 0 55 0 54 0 54 0 
54 0 55 0 54 0 54 0 54 0 55 0 54 0 54 0 
55 0 54 0 54 0 54 0 55 0 54 0 54 0 54 0 
55 0 54 0 54 0 55 0 54 0 54 0 54 0 55 0 
54 0 54 0 54 0 55 0 54 0 54 0 55 0 54 0 
54 0 54 0 55 0 54 0 54 0 54 0 55 0 54 0 
54 0 55 0 54 0 54 0 54 0 55 0 54 0 54 0 
54 0 55 0 54 0 54 0 55 0 54 0 54 0 54 0 
55 0 54 0 54 0 54 0 55 0 54 0 54 0 55 0 
54 0 54 0 54 0 55 0 54 0 54 0 54 0 55 0 
54 0 54 0 55 0 54 0 54 0 54 0 55 0 54 0 
54 0 54 0 55 0 54 0 54 0 55 0 54 0 54 0 
54 0 55 0 54 0 54 0 54 0 55 0 54 0 54 0 
55 0 54 0 54 0 54 0 55 0 54 0 54 0 54 0 
55 0 54 0 54 0 55 0 54 0 54 0 54 1 55 -1 
54 1 54 -2 54 3 55 -4 54 6 54 -12 55 -259 54 97 
54 -564 54 -61 55 153 54 273 54 -896 54 -503 55 1017 54 840 
54 -123 55 -36 54 -427 54 562 54 -2255 55 -465 54 130 54 -63 
54 40 55 -33 54 21 54 -10 54 2 1639 3549 174 MP stroke
gr

24 w
c9
0 sg
1157 2630 mt  -90 rotate
(mA) s
90 rotate
6330 5014 mt 
(ms) s
6 w

end %%Color Dict

eplot
%%EndObject

epage
end

showpage

%%Trailer
%%EOF
