%!PS-Adobe-3.0 EPSF-3.0
%%Creator: MATLAB, The Mathworks, Inc. Version 7.7.0.471 (R2008b). Operating System: Linux 2.6.18-92.1.22.el5xen #1 SMP Tue Dec 16 12:26:32 EST 2008 x86_64.
%%Title: /home/lauril/tinymulleart/send100b.eps
%%CreationDate: 10/30/2009  18:12:27
%%DocumentNeededFonts: Helvetica
%%DocumentProcessColors: Cyan Magenta Yellow Black
%%LanguageLevel: 2
%%Pages: 1
%%BoundingBox:    73   252   521   589
%%EndComments

%%BeginProlog
% MathWorks dictionary
/MathWorks 160 dict begin
% definition operators
/bdef {bind def} bind def
/ldef {load def} bind def
/xdef {exch def} bdef
/xstore {exch store} bdef
% operator abbreviations
/c  /clip ldef
/cc /concat ldef
/cp /closepath ldef
/gr /grestore ldef
/gs /gsave ldef
/mt /moveto ldef
/np /newpath ldef
/cm /currentmatrix ldef
/sm /setmatrix ldef
/rm /rmoveto ldef
/rl /rlineto ldef
/s {show newpath} bdef
/sc {setcmykcolor} bdef
/sr /setrgbcolor ldef
/sg /setgray ldef
/w /setlinewidth ldef
/j /setlinejoin ldef
/cap /setlinecap ldef
/rc {rectclip} bdef
/rf {rectfill} bdef
% page state control
/pgsv () def
/bpage {/pgsv save def} bdef
/epage {pgsv restore} bdef
/bplot /gsave ldef
/eplot {stroke grestore} bdef
% orientation switch
/portraitMode 0 def /landscapeMode 1 def /rotateMode 2 def
% coordinate system mappings
/dpi2point 0 def
% font control
/FontSize 0 def
/FMS {/FontSize xstore findfont [FontSize 0 0 FontSize neg 0 0]
  makefont setfont} bdef
/reencode {exch dup where {pop load} {pop StandardEncoding} ifelse
  exch dup 3 1 roll findfont dup length dict begin
  { 1 index /FID ne {def}{pop pop} ifelse } forall
  /Encoding exch def currentdict end definefont pop} bdef
/isroman {findfont /CharStrings get /Agrave known} bdef
/FMSR {3 1 roll 1 index dup isroman {reencode} {pop pop} ifelse
  exch FMS} bdef
/csm {1 dpi2point div -1 dpi2point div scale neg translate
 dup landscapeMode eq {pop -90 rotate}
  {rotateMode eq {90 rotate} if} ifelse} bdef
% line types: solid, dotted, dashed, dotdash
/SO { [] 0 setdash } bdef
/DO { [.5 dpi2point mul 4 dpi2point mul] 0 setdash } bdef
/DA { [6 dpi2point mul] 0 setdash } bdef
/DD { [.5 dpi2point mul 4 dpi2point mul 6 dpi2point mul 4
  dpi2point mul] 0 setdash } bdef
% macros for lines and objects
/L {lineto stroke} bdef
/MP {3 1 roll moveto 1 sub {rlineto} repeat} bdef
/AP {{rlineto} repeat} bdef
/PDlw -1 def
/W {/PDlw currentlinewidth def setlinewidth} def
/PP {closepath eofill} bdef
/DP {closepath stroke} bdef
/MR {4 -2 roll moveto dup  0 exch rlineto exch 0 rlineto
  neg 0 exch rlineto closepath} bdef
/FR {MR stroke} bdef
/PR {MR fill} bdef
/L1i {{currentfile picstr readhexstring pop} image} bdef
/tMatrix matrix def
/MakeOval {newpath tMatrix currentmatrix pop translate scale
0 0 1 0 360 arc tMatrix setmatrix} bdef
/FO {MakeOval stroke} bdef
/PO {MakeOval fill} bdef
/PD {currentlinewidth 2 div 0 360 arc fill
   PDlw -1 eq not {PDlw w /PDlw -1 def} if} def
/FA {newpath tMatrix currentmatrix pop translate scale
  0 0 1 5 -2 roll arc tMatrix setmatrix stroke} bdef
/PA {newpath tMatrix currentmatrix pop	translate 0 0 moveto scale
  0 0 1 5 -2 roll arc closepath tMatrix setmatrix fill} bdef
/FAn {newpath tMatrix currentmatrix pop translate scale
  0 0 1 5 -2 roll arcn tMatrix setmatrix stroke} bdef
/PAn {newpath tMatrix currentmatrix pop translate 0 0 moveto scale
  0 0 1 5 -2 roll arcn closepath tMatrix setmatrix fill} bdef
/vradius 0 def /hradius 0 def /lry 0 def
/lrx 0 def /uly 0 def /ulx 0 def /rad 0 def
/MRR {/vradius xdef /hradius xdef /lry xdef /lrx xdef /uly xdef
  /ulx xdef newpath tMatrix currentmatrix pop ulx hradius add uly
  vradius add translate hradius vradius scale 0 0 1 180 270 arc 
  tMatrix setmatrix lrx hradius sub uly vradius add translate
  hradius vradius scale 0 0 1 270 360 arc tMatrix setmatrix
  lrx hradius sub lry vradius sub translate hradius vradius scale
  0 0 1 0 90 arc tMatrix setmatrix ulx hradius add lry vradius sub
  translate hradius vradius scale 0 0 1 90 180 arc tMatrix setmatrix
  closepath} bdef
/FRR {MRR stroke } bdef
/PRR {MRR fill } bdef
/MlrRR {/lry xdef /lrx xdef /uly xdef /ulx xdef /rad lry uly sub 2 div def
  newpath tMatrix currentmatrix pop ulx rad add uly rad add translate
  rad rad scale 0 0 1 90 270 arc tMatrix setmatrix lrx rad sub lry rad
  sub translate rad rad scale 0 0 1 270 90 arc tMatrix setmatrix
  closepath} bdef
/FlrRR {MlrRR stroke } bdef
/PlrRR {MlrRR fill } bdef
/MtbRR {/lry xdef /lrx xdef /uly xdef /ulx xdef /rad lrx ulx sub 2 div def
  newpath tMatrix currentmatrix pop ulx rad add uly rad add translate
  rad rad scale 0 0 1 180 360 arc tMatrix setmatrix lrx rad sub lry rad
  sub translate rad rad scale 0 0 1 0 180 arc tMatrix setmatrix
  closepath} bdef
/FtbRR {MtbRR stroke } bdef
/PtbRR {MtbRR fill } bdef
/stri 6 array def /dtri 6 array def
/smat 6 array def /dmat 6 array def
/tmat1 6 array def /tmat2 6 array def /dif 3 array def
/asub {/ind2 exch def /ind1 exch def dup dup
  ind1 get exch ind2 get sub exch } bdef
/tri_to_matrix {
  2 0 asub 3 1 asub 4 0 asub 5 1 asub
  dup 0 get exch 1 get 7 -1 roll astore } bdef
/compute_transform {
  dmat dtri tri_to_matrix tmat1 invertmatrix 
  smat stri tri_to_matrix tmat2 concatmatrix } bdef
/ds {stri astore pop} bdef
/dt {dtri astore pop} bdef
/db {2 copy /cols xdef /rows xdef mul dup 3 mul string
  currentfile 
  3 index 0 eq {/ASCIIHexDecode filter}
  {/ASCII85Decode filter 3 index 2 eq {/RunLengthDecode filter} if }
  ifelse exch readstring pop
  dup 0 3 index getinterval /rbmap xdef
  dup 2 index dup getinterval /gbmap xdef
  1 index dup 2 mul exch getinterval /bbmap xdef pop pop}bdef
/it {gs np dtri aload pop moveto lineto lineto cp c
  cols rows 8 compute_transform 
  rbmap gbmap bbmap true 3 colorimage gr}bdef
/il {newpath moveto lineto stroke}bdef
currentdict end def
%%EndProlog

%%BeginSetup
MathWorks begin

0 cap

end
%%EndSetup

%%Page: 1 1
%%BeginPageSetup
%%PageBoundingBox:    73   252   521   589
MathWorks begin
bpage
%%EndPageSetup

%%BeginObject: obj1
bplot

/dpi2point 12 def
portraitMode 0876 7068 csm

    0     0  5376  4034 rc
85 dict begin %Colortable dictionary
/c0 { 0.000000 0.000000 0.000000 sr} bdef
/c1 { 1.000000 1.000000 1.000000 sr} bdef
/c2 { 0.900000 0.000000 0.000000 sr} bdef
/c3 { 0.000000 0.820000 0.000000 sr} bdef
/c4 { 0.000000 0.000000 0.800000 sr} bdef
/c5 { 0.910000 0.820000 0.320000 sr} bdef
/c6 { 1.000000 0.260000 0.820000 sr} bdef
/c7 { 0.000000 0.820000 0.820000 sr} bdef
c0
1 j
1 sg
   0    0 5377 4035 rf
6 w
0 3288 4166 0 0 -3288 699 3590 4 MP
PP
-4166 0 0 3288 4166 0 0 -3288 699 3590 5 MP stroke
4 w
DO
SO
6 w
0 sg
 699 3590 mt 4865 3590 L
 699  302 mt 4865  302 L
 699 3590 mt  699  302 L
4865 3590 mt 4865  302 L
 699 3590 mt 4865 3590 L
 699 3590 mt  699  302 L
 838 3590 mt  838 3548 L
 838  302 mt  838  344 L
%%IncludeResource: font Helvetica
/Helvetica /ISOLatin1Encoding 120 FMSR

 688 3735 mt 
(2.875) s
1805 3590 mt 1805 3548 L
1805  302 mt 1805  344 L
1689 3735 mt 
(2.88) s
2771 3590 mt 2771 3548 L
2771  302 mt 2771  344 L
2621 3735 mt 
(2.885) s
3737 3590 mt 3737 3548 L
3737  302 mt 3737  344 L
3621 3735 mt 
(2.89) s
4704 3590 mt 4704 3548 L
4704  302 mt 4704  344 L
4554 3735 mt 
(2.895) s
4595 3937 mt 
(x 10) s
%%IncludeResource: font Helvetica
/Helvetica /ISOLatin1Encoding 80 FMSR

4821 3863 mt 
(4) s
 699 3256 mt  740 3256 L
4865 3256 mt 4823 3256 L
%%IncludeResource: font Helvetica
/Helvetica /ISOLatin1Encoding 120 FMSR

 598 3300 mt 
(0) s
 699 2921 mt  740 2921 L
4865 2921 mt 4823 2921 L
 598 2965 mt 
(2) s
 699 2587 mt  740 2587 L
4865 2587 mt 4823 2587 L
 598 2631 mt 
(4) s
 699 2252 mt  740 2252 L
4865 2252 mt 4823 2252 L
 598 2296 mt 
(6) s
 699 1917 mt  740 1917 L
4865 1917 mt 4823 1917 L
 598 1961 mt 
(8) s
 699 1583 mt  740 1583 L
4865 1583 mt 4823 1583 L
 531 1627 mt 
(10) s
 699 1248 mt  740 1248 L
4865 1248 mt 4823 1248 L
 531 1292 mt 
(12) s
 699  914 mt  740  914 L
4865  914 mt 4823  914 L
 531  958 mt 
(14) s
 699  579 mt  740  579 L
4865  579 mt 4823  579 L
 531  623 mt 
(16) s
 699 3590 mt 4865 3590 L
 699  302 mt 4865  302 L
 699 3590 mt  699  302 L
4865 3590 mt 4865  302 L
gs 699 303 4167 3288 rc
/c8 { 0.000000 0.000000 1.000000 sr} bdef
c8
7 -1 20 10 19 -9 19 8 20 -7 19 -6 19 -1 20 -4 
19 3 19 12 20 -9 19 3 19 1 20 -2 19 2 19 5 
20 0 19 5 19 -12 20 5 19 4 19 -6 20 7 19 -12 
19 11 20 -25 19 32 19 -56 20 111 19 -10 19 1979 20 727 
19 -187 19 107 20 -66 19 45 19 -30 20 21 19 -14 19 9 
20 -5 19 3 19 -2 20 1 19 0 19 0 20 0 19 0 
19 0 20 0 19 0 19 0 20 0 19 0 19 0 20 0 
19 0 19 0 20 0 19 0 19 0 20 0 19 0 19 0 
19 0 20 0 19 0 19 0 20 0 19 0 19 0 20 0 
19 0 19 0 20 0 19 0 19 0 20 0 19 0 19 0 
20 0 19 0 19 0 20 0 19 0 19 0 20 0 19 0 
19 0 20 0 19 0 19 0 20 0 19 0 19 0 20 0 
19 0 19 0 20 0 19 0 19 0 20 0 19 0 19 0 
20 0 19 0 19 0 20 0 19 0 19 0 20 0 19 0 
19 0 20 0 19 0 19 0 20 0 19 0 19 0 20 0 
19 0 19 0 20 0 19 0 19 0 20 0 19 0 19 0 
20 0 19 0 19 0 20 0 19 0 19 0 20 0 19 0 
19 0 20 0 19 0 19 0 20 0 19 0 19 0 20 0 
19 0 19 0 20 0 19 0 19 0 20 0 19 0 19 0 
20 0 19 0 19 0 20 0 19 0 19 0 19 0 20 0 
19 0 19 0 20 -1 19 1 19 -1 20 2 19 -4 19 6 
20 -12 19 -266 19 99 20 -580 19 -63 19 157 20 281 19 -921 
19 -518 20 1046 19 865 19 -126 20 -38 19 -439 19 578 20 -2321 
19 -479 19 134 20 -65 19 42 19 -34 20 21 19 -10 19 3 
20 -4 19 1 19 9 20 6 19 -7 19 2 20 -3 19 0 
19 -2 20 6 19 -15 19 5 20 8 19 -6 19 7 20 -4 
19 10 19 -1 20 0 19 -14 19 -26 20 14 19 27 19 -7 
4 0 699 3164 218 MP stroke
gr

c8

end %%Color Dict

eplot
%%EndObject

epage
end

showpage

%%Trailer
%%EOF
