<?xml version="1.0" encoding="UTF-8" standalone="no"?>
<!-- Created with Inkscape (http://www.inkscape.org/) -->

<svg
   xmlns:dc="http://purl.org/dc/elements/1.1/"
   xmlns:cc="http://creativecommons.org/ns#"
   xmlns:rdf="http://www.w3.org/1999/02/22-rdf-syntax-ns#"
   xmlns:svg="http://www.w3.org/2000/svg"
   xmlns="http://www.w3.org/2000/svg"
   xmlns:sodipodi="http://sodipodi.sourceforge.net/DTD/sodipodi-0.dtd"
   xmlns:inkscape="http://www.inkscape.org/namespaces/inkscape"
   width="1052.3622"
   height="744.09448"
   id="svg2"
   version="1.1"
   inkscape:version="0.48.4 r9939"
   sodipodi:docname="system-design-v2.svg">
  <defs
     id="defs4">
    <marker
       inkscape:stockid="Arrow2Mend"
       orient="auto"
       refY="0.0"
       refX="0.0"
       id="Arrow2Mend"
       style="overflow:visible;">
      <path
         id="path3964"
         style="font-size:12.0;fill-rule:evenodd;stroke-width:0.62500000;stroke-linejoin:round;"
         d="M 8.7185878,4.0337352 L -2.2072895,0.016013256 L 8.7185884,-4.0017078 C 6.9730900,-1.6296469 6.9831476,1.6157441 8.7185878,4.0337352 z "
         transform="scale(0.6) rotate(180) translate(0,0)" />
    </marker>
    <marker
       inkscape:stockid="Arrow1Lend"
       orient="auto"
       refY="0"
       refX="0"
       id="Arrow1Lend"
       style="overflow:visible">
      <path
         inkscape:connector-curvature="0"
         id="path5862"
         d="M 0,0 5,-5 -12.5,0 5,5 0,0 z"
         style="fill-rule:evenodd;stroke:#000000;stroke-width:1pt"
         transform="matrix(-0.8,0,0,-0.8,-10,0)" />
    </marker>
    <marker
       inkscape:stockid="Arrow1Lstart"
       orient="auto"
       refY="0"
       refX="0"
       id="Arrow1Lstart"
       style="overflow:visible">
      <path
         inkscape:connector-curvature="0"
         id="path4208"
         d="M 0,0 5,-5 -12.5,0 5,5 0,0 z"
         style="fill-rule:evenodd;stroke:#000000;stroke-width:1pt"
         transform="matrix(0.8,0,0,0.8,10,0)" />
    </marker>
    <marker
       inkscape:stockid="Arrow1Lend"
       orient="auto"
       refY="0"
       refX="0"
       id="Arrow1Lend-4"
       style="overflow:visible">
      <path
         inkscape:connector-curvature="0"
         id="path5862-1"
         d="M 0,0 5,-5 -12.5,0 5,5 0,0 z"
         style="fill-rule:evenodd;stroke:#000000;stroke-width:1pt"
         transform="matrix(-0.8,0,0,-0.8,-10,0)" />
    </marker>
    <marker
       inkscape:stockid="Arrow1Lstart"
       orient="auto"
       refY="0"
       refX="0"
       id="Arrow1Lstart-8"
       style="overflow:visible">
      <path
         inkscape:connector-curvature="0"
         id="path4208-5"
         d="M 0,0 5,-5 -12.5,0 5,5 0,0 z"
         style="fill-rule:evenodd;stroke:#000000;stroke-width:1pt"
         transform="matrix(0.8,0,0,0.8,10,0)" />
    </marker>
    <marker
       inkscape:stockid="Arrow1Lend"
       orient="auto"
       refY="0"
       refX="0"
       id="Arrow1Lend-5"
       style="overflow:visible">
      <path
         inkscape:connector-curvature="0"
         id="path5862-8"
         d="M 0,0 5,-5 -12.5,0 5,5 0,0 z"
         style="fill-rule:evenodd;stroke:#000000;stroke-width:1pt"
         transform="matrix(-0.8,0,0,-0.8,-10,0)" />
    </marker>
    <marker
       inkscape:stockid="Arrow1Lend"
       orient="auto"
       refY="0"
       refX="0"
       id="Arrow1Lend-8"
       style="overflow:visible">
      <path
         inkscape:connector-curvature="0"
         id="path5862-9"
         d="M 0,0 5,-5 -12.5,0 5,5 0,0 z"
         style="fill-rule:evenodd;stroke:#000000;stroke-width:1pt"
         transform="matrix(-0.8,0,0,-0.8,-10,0)" />
    </marker>
    <marker
       inkscape:stockid="Arrow1Lend"
       orient="auto"
       refY="0"
       refX="0"
       id="marker4032"
       style="overflow:visible">
      <path
         inkscape:connector-curvature="0"
         id="path4034"
         d="M 0,0 5,-5 -12.5,0 5,5 0,0 z"
         style="fill-rule:evenodd;stroke:#000000;stroke-width:1pt"
         transform="matrix(-0.8,0,0,-0.8,-10,0)" />
    </marker>
    <marker
       inkscape:stockid="Arrow1Lend"
       orient="auto"
       refY="0"
       refX="0"
       id="Arrow1Lend-1"
       style="overflow:visible">
      <path
         inkscape:connector-curvature="0"
         id="path5862-5"
         d="M 0,0 5,-5 -12.5,0 5,5 0,0 z"
         style="fill-rule:evenodd;stroke:#000000;stroke-width:1pt"
         transform="matrix(-0.8,0,0,-0.8,-10,0)" />
    </marker>
    <marker
       inkscape:stockid="Arrow1Lend"
       orient="auto"
       refY="0"
       refX="0"
       id="marker4112"
       style="overflow:visible">
      <path
         inkscape:connector-curvature="0"
         id="path4114"
         d="M 0,0 5,-5 -12.5,0 5,5 0,0 z"
         style="fill-rule:evenodd;stroke:#000000;stroke-width:1pt"
         transform="matrix(-0.8,0,0,-0.8,-10,0)" />
    </marker>
    <marker
       inkscape:stockid="Arrow1Lend"
       orient="auto"
       refY="0"
       refX="0"
       id="Arrow1Lend-3"
       style="overflow:visible">
      <path
         inkscape:connector-curvature="0"
         id="path5862-7"
         d="M 0,0 5,-5 -12.5,0 5,5 0,0 z"
         style="fill-rule:evenodd;stroke:#000000;stroke-width:1pt"
         transform="matrix(-0.8,0,0,-0.8,-10,0)" />
    </marker>
    <marker
       inkscape:stockid="Arrow1Lend"
       orient="auto"
       refY="0"
       refX="0"
       id="marker3952"
       style="overflow:visible">
      <path
         inkscape:connector-curvature="0"
         id="path3954"
         d="M 0,0 5,-5 -12.5,0 5,5 0,0 z"
         style="fill-rule:evenodd;stroke:#000000;stroke-width:1pt"
         transform="matrix(-0.8,0,0,-0.8,-10,0)" />
    </marker>
    <marker
       inkscape:stockid="Arrow1Lend"
       orient="auto"
       refY="0"
       refX="0"
       id="Arrow1Lend-0"
       style="overflow:visible">
      <path
         inkscape:connector-curvature="0"
         id="path5862-2"
         d="M 0,0 5,-5 -12.5,0 5,5 0,0 z"
         style="fill-rule:evenodd;stroke:#000000;stroke-width:1pt"
         transform="matrix(-0.8,0,0,-0.8,-10,0)" />
    </marker>
    <marker
       inkscape:stockid="Arrow1Lend"
       orient="auto"
       refY="0"
       refX="0"
       id="marker3137"
       style="overflow:visible">
      <path
         inkscape:connector-curvature="0"
         id="path3139"
         d="M 0,0 5,-5 -12.5,0 5,5 0,0 z"
         style="fill-rule:evenodd;stroke:#000000;stroke-width:1pt"
         transform="matrix(-0.8,0,0,-0.8,-10,0)" />
    </marker>
    <marker
       inkscape:stockid="Arrow2Mend"
       orient="auto"
       refY="0"
       refX="0"
       id="Arrow2Mend-2"
       style="overflow:visible">
      <path
         inkscape:connector-curvature="0"
         id="path3964-8"
         style="font-size:12px;fill-rule:evenodd;stroke-width:0.625;stroke-linejoin:round"
         d="M 8.7185878,4.0337352 -2.2072895,0.01601326 8.7185884,-4.0017078 c -1.7454984,2.3720609 -1.7354408,5.6174519 -6e-7,8.035443 z"
         transform="scale(-0.6,-0.6)" />
    </marker>
    <marker
       inkscape:stockid="Arrow2Mend"
       orient="auto"
       refY="0"
       refX="0"
       id="marker6822"
       style="overflow:visible">
      <path
         inkscape:connector-curvature="0"
         id="path6824"
         style="font-size:12px;fill-rule:evenodd;stroke-width:0.625;stroke-linejoin:round"
         d="M 8.7185878,4.0337352 -2.2072895,0.01601326 8.7185884,-4.0017078 c -1.7454984,2.3720609 -1.7354408,5.6174519 -6e-7,8.035443 z"
         transform="scale(-0.6,-0.6)" />
    </marker>
    <marker
       inkscape:stockid="Arrow2Mend"
       orient="auto"
       refY="0"
       refX="0"
       id="Arrow2Mend-3"
       style="overflow:visible">
      <path
         inkscape:connector-curvature="0"
         id="path3964-2"
         style="font-size:12px;fill-rule:evenodd;stroke-width:0.625;stroke-linejoin:round"
         d="M 8.7185878,4.0337352 -2.2072895,0.01601326 8.7185884,-4.0017078 c -1.7454984,2.3720609 -1.7354408,5.6174519 -6e-7,8.035443 z"
         transform="scale(-0.6,-0.6)" />
    </marker>
    <marker
       inkscape:stockid="Arrow2Mend"
       orient="auto"
       refY="0"
       refX="0"
       id="marker3975"
       style="overflow:visible">
      <path
         inkscape:connector-curvature="0"
         id="path3977"
         style="font-size:12px;fill-rule:evenodd;stroke-width:0.625;stroke-linejoin:round"
         d="M 8.7185878,4.0337352 -2.2072895,0.01601326 8.7185884,-4.0017078 c -1.7454984,2.3720609 -1.7354408,5.6174519 -6e-7,8.035443 z"
         transform="scale(-0.6,-0.6)" />
    </marker>
    <marker
       inkscape:stockid="Arrow2Mend"
       orient="auto"
       refY="0"
       refX="0"
       id="Arrow2Mend-0"
       style="overflow:visible">
      <path
         inkscape:connector-curvature="0"
         id="path3964-24"
         style="font-size:12px;fill-rule:evenodd;stroke-width:0.625;stroke-linejoin:round"
         d="M 8.7185878,4.0337352 -2.2072895,0.01601326 8.7185884,-4.0017078 c -1.7454984,2.3720609 -1.7354408,5.6174519 -6e-7,8.035443 z"
         transform="scale(-0.6,-0.6)" />
    </marker>
    <marker
       inkscape:stockid="Arrow2Mend"
       orient="auto"
       refY="0"
       refX="0"
       id="Arrow2Mend-8"
       style="overflow:visible">
      <path
         inkscape:connector-curvature="0"
         id="path3964-3"
         style="font-size:12px;fill-rule:evenodd;stroke-width:0.625;stroke-linejoin:round"
         d="M 8.7185878,4.0337352 -2.2072895,0.01601326 8.7185884,-4.0017078 c -1.7454984,2.3720609 -1.7354408,5.6174519 -6e-7,8.035443 z"
         transform="scale(-0.6,-0.6)" />
    </marker>
    <marker
       inkscape:stockid="Arrow2Mend"
       orient="auto"
       refY="0"
       refX="0"
       id="Arrow2Mend-6"
       style="overflow:visible">
      <path
         inkscape:connector-curvature="0"
         id="path3964-88"
         style="font-size:12px;fill-rule:evenodd;stroke-width:0.625;stroke-linejoin:round"
         d="M 8.7185878,4.0337352 -2.2072895,0.01601326 8.7185884,-4.0017078 c -1.7454984,2.3720609 -1.7354408,5.6174519 -6e-7,8.035443 z"
         transform="scale(-0.6,-0.6)" />
    </marker>
    <marker
       inkscape:stockid="Arrow2Mend"
       orient="auto"
       refY="0"
       refX="0"
       id="Arrow2Mend-03"
       style="overflow:visible">
      <path
         inkscape:connector-curvature="0"
         id="path3964-34"
         style="font-size:12px;fill-rule:evenodd;stroke-width:0.625;stroke-linejoin:round"
         d="M 8.7185878,4.0337352 -2.2072895,0.01601326 8.7185884,-4.0017078 c -1.7454984,2.3720609 -1.7354408,5.6174519 -6e-7,8.035443 z"
         transform="scale(-0.6,-0.6)" />
    </marker>
    <marker
       inkscape:stockid="Arrow2Mend"
       orient="auto"
       refY="0"
       refX="0"
       id="marker3294"
       style="overflow:visible">
      <path
         inkscape:connector-curvature="0"
         id="path3296"
         style="font-size:12px;fill-rule:evenodd;stroke-width:0.625;stroke-linejoin:round"
         d="M 8.7185878,4.0337352 -2.2072895,0.01601326 8.7185884,-4.0017078 c -1.7454984,2.3720609 -1.7354408,5.6174519 -6e-7,8.035443 z"
         transform="scale(-0.6,-0.6)" />
    </marker>
    <marker
       inkscape:stockid="Arrow2Mend"
       orient="auto"
       refY="0"
       refX="0"
       id="Arrow2Mend-26"
       style="overflow:visible">
      <path
         inkscape:connector-curvature="0"
         id="path3964-39"
         style="font-size:12px;fill-rule:evenodd;stroke-width:0.625;stroke-linejoin:round"
         d="M 8.7185878,4.0337352 -2.2072895,0.01601326 8.7185884,-4.0017078 c -1.7454984,2.3720609 -1.7354408,5.6174519 -6e-7,8.035443 z"
         transform="scale(-0.6,-0.6)" />
    </marker>
    <marker
       inkscape:stockid="Arrow2Mend"
       orient="auto"
       refY="0"
       refX="0"
       id="marker3333"
       style="overflow:visible">
      <path
         inkscape:connector-curvature="0"
         id="path3335"
         style="font-size:12px;fill-rule:evenodd;stroke-width:0.625;stroke-linejoin:round"
         d="M 8.7185878,4.0337352 -2.2072895,0.01601326 8.7185884,-4.0017078 c -1.7454984,2.3720609 -1.7354408,5.6174519 -6e-7,8.035443 z"
         transform="scale(-0.6,-0.6)" />
    </marker>
    <marker
       inkscape:stockid="Arrow2Mend"
       orient="auto"
       refY="0"
       refX="0"
       id="Arrow2Mend-4"
       style="overflow:visible">
      <path
         inkscape:connector-curvature="0"
         id="path3964-9"
         style="font-size:12px;fill-rule:evenodd;stroke-width:0.625;stroke-linejoin:round"
         d="M 8.7185878,4.0337352 -2.2072895,0.01601326 8.7185884,-4.0017078 c -1.7454984,2.3720609 -1.7354408,5.6174519 -6e-7,8.035443 z"
         transform="scale(-0.6,-0.6)" />
    </marker>
    <marker
       inkscape:stockid="Arrow2Mend"
       orient="auto"
       refY="0"
       refX="0"
       id="marker3375"
       style="overflow:visible">
      <path
         inkscape:connector-curvature="0"
         id="path3377"
         style="font-size:12px;fill-rule:evenodd;stroke-width:0.625;stroke-linejoin:round"
         d="M 8.7185878,4.0337352 -2.2072895,0.01601326 8.7185884,-4.0017078 c -1.7454984,2.3720609 -1.7354408,5.6174519 -6e-7,8.035443 z"
         transform="scale(-0.6,-0.6)" />
    </marker>
  </defs>
  <sodipodi:namedview
     id="base"
     pagecolor="#ffffff"
     bordercolor="#666666"
     borderopacity="1.0"
     inkscape:pageopacity="0.0"
     inkscape:pageshadow="2"
     inkscape:zoom="0.7"
     inkscape:cx="520.08815"
     inkscape:cy="206.00517"
     inkscape:document-units="px"
     inkscape:current-layer="layer1"
     showgrid="false"
     inkscape:window-width="1301"
     inkscape:window-height="744"
     inkscape:window-x="65"
     inkscape:window-y="24"
     inkscape:window-maximized="1" />
  <metadata
     id="metadata7">
    <rdf:RDF>
      <cc:Work
         rdf:about="">
        <dc:format>image/svg+xml</dc:format>
        <dc:type
           rdf:resource="http://purl.org/dc/dcmitype/StillImage" />
        <dc:title></dc:title>
      </cc:Work>
    </rdf:RDF>
  </metadata>
  <g
     inkscape:label="Layer 1"
     inkscape:groupmode="layer"
     id="layer1"
     transform="translate(0,-308.2677)">
    <rect
       style="fill:#ffffff;fill-opacity:1;stroke:#000000;stroke-width:2.33694458;stroke-miterlimit:2.83333325;stroke-opacity:1;stroke-dasharray:18.69555525, 18.69555525;stroke-dashoffset:2.3369444"
       id="rect4135"
       width="255.40311"
       height="308.97986"
       x="21.098505"
       y="654.50812"
       inkscape:export-filename="/home/lauril/Dropbox/LTU/SymphonyJournal/img/system-design_new.png"
       inkscape:export-xdpi="90"
       inkscape:export-ydpi="90" />
    <rect
       style="fill:#ffffff;fill-opacity:1;stroke:#000000;stroke-width:2.39494729;stroke-miterlimit:2.83333325;stroke-opacity:1;stroke-dasharray:19.15957687, 19.15957687;stroke-dashoffset:2.39494712"
       id="rect4135-2-1"
       width="236.74516"
       height="308.95007"
       x="610.61102"
       y="654.32025"
       inkscape:export-filename="/home/lauril/Dropbox/LTU/SymphonyJournal/img/system-design_new.png"
       inkscape:export-xdpi="90"
       inkscape:export-ydpi="90" />
    <rect
       style="fill:#ffffff;fill-opacity:1;stroke:#000000;stroke-width:2.33694458;stroke-miterlimit:2.83333325;stroke-opacity:1;stroke-dasharray:18.69555525, 18.69555525;stroke-dashoffset:2.3369444"
       id="rect4135-2"
       width="273.98651"
       height="308.99521"
       x="304.51926"
       y="652.5885"
       inkscape:export-filename="/home/lauril/Dropbox/LTU/SymphonyJournal/img/system-design_new.png"
       inkscape:export-xdpi="90"
       inkscape:export-ydpi="90" />
    <rect
       style="fill:#ffffff;fill-opacity:1;stroke:#000000;stroke-width:2.2378509;stroke-miterlimit:2.83333325;stroke-opacity:1;stroke-dasharray:17.90280761, 17.90280761;stroke-dashoffset:2.23785096"
       id="rect4135-1"
       width="187.53236"
       height="310.51968"
       x="857.28485"
       y="651.91296"
       inkscape:export-filename="/home/lauril/Dropbox/LTU/SymphonyJournal/img/system-design_new.png"
       inkscape:export-xdpi="90"
       inkscape:export-ydpi="90" />
    <rect
       style="fill:#ffffff;fill-opacity:1;stroke:#000000;stroke-width:2.93622804;stroke-miterlimit:4;stroke-opacity:1;stroke-dasharray:none"
       id="rect3771"
       width="936.31049"
       height="57.705185"
       x="64.738022"
       y="991.06177"
       inkscape:export-filename="/home/lauril/Dropbox/LTU/SymphonyJournal/img/system-design_new.png"
       inkscape:export-xdpi="90"
       inkscape:export-ydpi="90" />
    <text
       xml:space="preserve"
       style="font-size:37.75865936px;font-style:normal;font-weight:normal;line-height:125%;letter-spacing:0px;word-spacing:0px;fill:#000000;fill-opacity:1;stroke:none;font-family:Sans"
       x="217.94212"
       y="1091.207"
       id="text3767"
       sodipodi:linespacing="125%"
       inkscape:export-filename="/home/lauril/Dropbox/LTU/SymphonyJournal/img/system-design_new.png"
       inkscape:export-xdpi="90"
       inkscape:export-ydpi="90"
       transform="scale(1.0593596,0.94396651)"><tspan
         sodipodi:role="line"
         id="tspan3769"
         x="217.94212"
         y="1091.207"
         style="font-size:47.19832611px">Symphony Call Mapping</tspan></text>
    <text
       xml:space="preserve"
       style="font-size:47.19832611px;font-style:normal;font-weight:normal;line-height:125%;letter-spacing:0px;word-spacing:0px;fill:#000000;fill-opacity:1;stroke:none;font-family:Sans"
       x="134.14017"
       y="731.44983"
       id="text4137"
       sodipodi:linespacing="125%"
       inkscape:export-filename="/home/lauril/Dropbox/LTU/SymphonyJournal/img/system-design_new.png"
       inkscape:export-xdpi="90"
       inkscape:export-ydpi="90"
       transform="scale(1.0593596,0.94396652)"><tspan
         sodipodi:role="line"
         id="tspan4139"
         x="134.14017"
         y="731.44983"
         style="font-size:37.75865936px;font-weight:bold;text-align:center;text-anchor:middle;-inkscape-font-specification:Sans Bold">Software</tspan><tspan
         sodipodi:role="line"
         x="134.14017"
         y="778.64813"
         style="font-size:37.75865936px;font-weight:bold;text-align:center;text-anchor:middle;-inkscape-font-specification:Sans Bold"
         id="tspan3892">scope</tspan></text>
    <text
       xml:space="preserve"
       style="font-size:47.19832611px;font-style:normal;font-weight:normal;line-height:125%;letter-spacing:0px;word-spacing:0px;fill:#000000;fill-opacity:1;stroke:none;font-family:Sans"
       x="-848.47174"
       y="849.93274"
       id="text4159"
       sodipodi:linespacing="125%"
       inkscape:export-filename="/home/lauril/Dropbox/LTU/SymphonyJournal/img/system-design_new.png"
       inkscape:export-xdpi="90"
       inkscape:export-ydpi="90"
       transform="matrix(0,-0.94396652,1.0593596,0,0,0)"><tspan
         sodipodi:role="line"
         id="tspan4161"
         x="-848.47174"
         y="849.93274"
         style="font-size:37.75865936px;font-weight:bold;text-align:center;text-anchor:middle;-inkscape-font-specification:Sans Bold">Orchestration</tspan><tspan
         sodipodi:role="line"
         x="-848.47174"
         y="897.13104"
         style="font-size:37.75865936px;font-weight:bold;text-align:center;text-anchor:middle;-inkscape-font-specification:Sans Bold"
         id="tspan3904">scope</tspan></text>
    <text
       xml:space="preserve"
       style="font-size:47.19832611px;font-style:normal;font-weight:normal;line-height:125%;letter-spacing:0px;word-spacing:0px;fill:#000000;fill-opacity:1;stroke:none;font-family:Sans"
       x="414.69946"
       y="731.44983"
       id="text4137-7"
       sodipodi:linespacing="125%"
       inkscape:export-filename="/home/lauril/Dropbox/LTU/SymphonyJournal/img/system-design_new.png"
       inkscape:export-xdpi="90"
       inkscape:export-ydpi="90"
       transform="scale(1.0593596,0.94396652)"><tspan
         sodipodi:role="line"
         id="tspan4139-1"
         x="414.69946"
         y="731.44983"
         style="font-size:37.75865936px;font-weight:bold;text-align:center;text-anchor:middle;-inkscape-font-specification:Sans Bold">Hardware</tspan><tspan
         sodipodi:role="line"
         x="414.69946"
         y="778.64813"
         style="font-size:37.75865936px;font-weight:bold;text-align:center;text-anchor:middle;-inkscape-font-specification:Sans Bold"
         id="tspan3890">scope</tspan></text>
    <rect
       style="fill:#ffffff;fill-opacity:1;stroke:#000000;stroke-width:1.95050895;stroke-miterlimit:4;stroke-opacity:1;stroke-dasharray:none"
       id="rect3777-3-4"
       width="191.66209"
       height="59.005653"
       x="341.88324"
       y="893.55951"
       inkscape:export-filename="/home/lauril/Dropbox/LTU/SymphonyJournal/img/system-design_new.png"
       inkscape:export-xdpi="90"
       inkscape:export-ydpi="90" />
    <text
       xml:space="preserve"
       style="font-size:47.19832611px;font-style:normal;font-weight:normal;line-height:125%;letter-spacing:0px;word-spacing:0px;fill:#000000;fill-opacity:1;stroke:none;font-family:Sans"
       x="412.15057"
       y="995.45038"
       id="text4016-0"
       sodipodi:linespacing="125%"
       inkscape:export-filename="/home/lauril/Dropbox/LTU/SymphonyJournal/img/system-design_new.png"
       inkscape:export-xdpi="90"
       inkscape:export-ydpi="90"
       transform="scale(1.0593596,0.94396652)"><tspan
         style="text-align:center;text-anchor:middle"
         id="tspan3089"
         sodipodi:role="line"
         x="412.15057"
         y="995.45038">Radio</tspan></text>
    <rect
       style="fill:#ffffff;fill-opacity:1;stroke:#000000;stroke-width:2.55904531;stroke-miterlimit:4;stroke-opacity:1;stroke-dasharray:none"
       id="rect3777-3-46"
       width="125.33927"
       height="63.009251"
       x="912.47321"
       y="885.29443"
       inkscape:export-filename="/home/lauril/Dropbox/LTU/SymphonyJournal/img/system-design_new.png"
       inkscape:export-xdpi="90"
       inkscape:export-ydpi="90" />
    <text
       xml:space="preserve"
       style="font-size:47.19832611px;font-style:normal;font-weight:normal;line-height:125%;letter-spacing:0px;word-spacing:0px;fill:#000000;fill-opacity:1;stroke:none;font-family:Sans"
       x="869.42059"
       y="988.40057"
       id="text4016-02"
       sodipodi:linespacing="125%"
       inkscape:export-filename="/home/lauril/Dropbox/LTU/SymphonyJournal/img/system-design_new.png"
       inkscape:export-xdpi="90"
       inkscape:export-ydpi="90"
       transform="scale(1.0593596,0.94396652)"><tspan
         sodipodi:role="line"
         id="tspan4018-2"
         x="869.42059"
         y="988.40057">ns-3</tspan></text>
    <flowRoot
       xml:space="preserve"
       id="flowRoot4013"
       style="fill:black;stroke:none;stroke-opacity:1;stroke-width:1px;stroke-linejoin:miter;stroke-linecap:butt;fill-opacity:1;font-family:Sans;font-style:normal;font-weight:normal;font-size:40px;line-height:125%;letter-spacing:0px;word-spacing:0px"><flowRegion
         id="flowRegion4015"><rect
           id="rect4017"
           width="1427.1428"
           height="1027.1428"
           x="-254.28572"
           y="-154.47694" /></flowRegion><flowPara
         id="flowPara4019" /></flowRoot>    <rect
       style="fill:#ffffff;fill-opacity:1;stroke:#000000;stroke-width:2.07153916;stroke-miterlimit:4;stroke-opacity:1;stroke-dasharray:none"
       id="rect3777-3-7"
       width="197.25746"
       height="55.348709"
       x="338.83292"
       y="814.30017"
       inkscape:export-filename="/home/lauril/Dropbox/LTU/SymphonyJournal/img/system-design_new.png"
       inkscape:export-xdpi="90"
       inkscape:export-ydpi="90"
       transform="matrix(0.99999989,4.6005671e-4,-3.7824128e-4,0.99999993,0,0)" />
    <text
       xml:space="preserve"
       style="font-size:47.19832611px;font-style:normal;font-weight:normal;line-height:125%;letter-spacing:0px;word-spacing:0px;fill:#000000;fill-opacity:1;stroke:none;font-family:Sans"
       x="331.07266"
       y="904.99445"
       id="text4016-8"
       sodipodi:linespacing="125%"
       inkscape:export-filename="/home/lauril/Dropbox/LTU/SymphonyJournal/img/system-design_new.png"
       inkscape:export-xdpi="90"
       inkscape:export-ydpi="90"
       transform="matrix(1.0593595,4.4190972e-4,-3.9377373e-4,0.94396644,0,0)"><tspan
         id="tspan3087"
         sodipodi:role="line"
         x="331.07266"
         y="904.99445">Crystal</tspan></text>
    <text
       sodipodi:linespacing="125%"
       id="text3082"
       y="702.93359"
       x="420.85715"
       style="font-size:30px;font-style:normal;font-weight:bold;line-height:125%;letter-spacing:0px;word-spacing:0px;fill:#000000;fill-opacity:1;stroke:none;font-family:Sans;-inkscape-font-specification:Sans Bold"
       xml:space="preserve"><tspan
         y="702.93359"
         x="420.85715"
         id="tspan3084"
         sodipodi:role="line" /></text>
    <g
       id="g3359"
       transform="translate(0,28)"
       inkscape:export-filename="/home/lauril/Dropbox/LTU/SymphonyJournal/img/system-design_new.png"
       inkscape:export-xdpi="90"
       inkscape:export-ydpi="90">
      <path
         inkscape:export-ydpi="90"
         inkscape:export-xdpi="90"
         inkscape:export-filename="/home/lauril/Dropbox/LTU/SymphonyJournal/img/system-design.png"
         inkscape:connector-curvature="0"
         id="path6671-3-7-3"
         d="m 389.36001,918.20212 0,40.86075"
         style="fill:none;stroke:#000000;stroke-width:2.05580974;stroke-linecap:butt;stroke-linejoin:miter;stroke-miterlimit:3;stroke-opacity:1;stroke-dasharray:none;marker-end:url(#Arrow2Mend)" />
      <path
         inkscape:export-ydpi="90"
         inkscape:export-xdpi="90"
         inkscape:export-filename="/home/lauril/Dropbox/LTU/SymphonyJournal/img/system-design.png"
         inkscape:connector-curvature="0"
         id="path6671-3-8-2-2"
         d="m 452.35427,959.63894 0,-43.74108"
         style="fill:none;stroke:#000000;stroke-width:2.05580974;stroke-linecap:butt;stroke-linejoin:miter;stroke-miterlimit:3;stroke-opacity:1;stroke-dasharray:none;marker-end:url(#Arrow2Mend)" />
    </g>
    <text
       xml:space="preserve"
       style="font-size:47.19832611px;font-style:normal;font-weight:normal;line-height:125%;letter-spacing:0px;word-spacing:0px;fill:#000000;fill-opacity:1;stroke:none;font-family:Sans"
       x="687.60431"
       y="731.10736"
       id="text4137-7-7"
       sodipodi:linespacing="125%"
       inkscape:export-filename="/home/lauril/Dropbox/LTU/SymphonyJournal/img/system-design_new.png"
       inkscape:export-xdpi="90"
       inkscape:export-ydpi="90"
       transform="scale(1.0593596,0.94396652)"><tspan
         sodipodi:role="line"
         id="tspan4139-1-2"
         x="687.60431"
         y="731.10736"
         style="font-size:37.75865936px;font-weight:bold;text-align:center;text-anchor:middle;-inkscape-font-specification:Sans Bold">Data Feed</tspan><tspan
         sodipodi:role="line"
         x="687.60431"
         y="778.30566"
         style="font-size:37.75865936px;font-weight:bold;text-align:center;text-anchor:middle;-inkscape-font-specification:Sans Bold"
         id="tspan3890-3">scope</tspan></text>
    <rect
       style="fill:#ffffff;fill-opacity:1;stroke:#000000;stroke-width:2.1227572;stroke-miterlimit:4;stroke-opacity:1;stroke-dasharray:none"
       id="rect3777-3-46-7"
       width="195.77554"
       height="59.300209"
       x="340.2551"
       y="741.9787"
       inkscape:export-filename="/home/lauril/Dropbox/LTU/SymphonyJournal/img/system-design_new.png"
       inkscape:export-xdpi="90"
       inkscape:export-ydpi="90" />
    <text
       xml:space="preserve"
       style="font-size:47.19832611px;font-style:normal;font-weight:normal;line-height:125%;letter-spacing:0px;word-spacing:0px;fill:#000000;fill-opacity:1;stroke:none;font-family:Sans"
       x="412.05963"
       y="834.61298"
       id="text4016-02-7"
       sodipodi:linespacing="125%"
       inkscape:export-filename="/home/lauril/Dropbox/LTU/SymphonyJournal/img/system-design_new.png"
       inkscape:export-xdpi="90"
       inkscape:export-ydpi="90"
       transform="scale(1.0593596,0.94396652)"><tspan
         id="tspan3085"
         sodipodi:role="line"
         x="412.05963"
         y="834.61298"
         style="font-size:47.19832611px;text-align:center;text-anchor:middle">Sensor</tspan></text>
    <rect
       style="fill:#ffffff;fill-opacity:1;stroke:#000000;stroke-width:3.00025725;stroke-miterlimit:2.83333325;stroke-opacity:1;stroke-dasharray:24.00205894, 24.00205894;stroke-dashoffset:3.0002573"
       id="rect4135-1-6"
       width="54.236614"
       height="792.98517"
       x="-614.49329"
       y="28.858799"
       inkscape:export-filename="/home/lauril/Dropbox/LTU/SymphonyJournal/img/system-design_new.png"
       inkscape:export-xdpi="90"
       inkscape:export-ydpi="90"
       transform="matrix(0.01908231,-0.99981792,0.99999984,5.5968808e-4,0,0)" />
    <text
       xml:space="preserve"
       style="font-size:30px;font-style:normal;font-weight:bold;line-height:125%;letter-spacing:0px;word-spacing:0px;fill:#000000;fill-opacity:1;stroke:none;font-family:Sans;-inkscape-font-specification:Sans Bold"
       x="177.71429"
       y="598.93359"
       id="text3098"
       sodipodi:linespacing="125%"
       inkscape:export-filename="/home/lauril/Dropbox/LTU/SymphonyJournal/img/system-design_new.png"
       inkscape:export-xdpi="90"
       inkscape:export-ydpi="90"><tspan
         sodipodi:role="line"
         id="tspan3100"
         x="177.71429"
         y="598.93359"
         style="font-size:36px">XML Configuration File</tspan></text>
    <path
       style="fill:none;stroke:#000000;stroke-width:2.5;stroke-linecap:butt;stroke-linejoin:miter;stroke-miterlimit:3;stroke-opacity:1;stroke-dasharray:none;marker-end:url(#Arrow2Mend)"
       d="m 156.26169,623.21856 0,32.22631"
       id="path6671-3-7-3-7"
       inkscape:connector-curvature="0"
       inkscape:export-filename="/home/lauril/Dropbox/LTU/SymphonyJournal/img/system-design_new.png"
       inkscape:export-xdpi="90"
       inkscape:export-ydpi="90" />
    <path
       style="fill:none;stroke:#000000;stroke-width:2.5;stroke-linecap:butt;stroke-linejoin:miter;stroke-miterlimit:3;stroke-opacity:1;stroke-dasharray:none;marker-end:url(#Arrow2Mend)"
       d="m 434.83312,620.93285 0,32.22631"
       id="path6671-3-7-3-7-4"
       inkscape:connector-curvature="0"
       inkscape:export-filename="/home/lauril/Dropbox/LTU/SymphonyJournal/img/system-design_new.png"
       inkscape:export-xdpi="90"
       inkscape:export-ydpi="90" />
    <path
       style="fill:none;stroke:#000000;stroke-width:2.5;stroke-linecap:butt;stroke-linejoin:miter;stroke-miterlimit:3;stroke-opacity:1;stroke-dasharray:none;marker-end:url(#Arrow2Mend)"
       d="m 710.54741,623.21856 0,32.22631"
       id="path6671-3-7-3-7-3"
       inkscape:connector-curvature="0"
       inkscape:export-filename="/home/lauril/Dropbox/LTU/SymphonyJournal/img/system-design_new.png"
       inkscape:export-xdpi="90"
       inkscape:export-ydpi="90" />
    <rect
       style="fill:#ffffff;fill-opacity:1;stroke:#000000;stroke-width:1.95050895;stroke-miterlimit:4;stroke-opacity:1;stroke-dasharray:none"
       id="rect3777-3-4-6"
       width="191.66209"
       height="59.005653"
       x="51.311817"
       y="893.55951"
       inkscape:export-filename="/home/lauril/Dropbox/LTU/SymphonyJournal/img/system-design_new.png"
       inkscape:export-xdpi="90"
       inkscape:export-ydpi="90" />
    <text
       xml:space="preserve"
       style="font-size:37.75865936px;font-style:normal;font-weight:normal;line-height:125%;letter-spacing:0px;word-spacing:0px;fill:#000000;fill-opacity:1;stroke:none;font-family:Sans"
       x="84.080772"
       y="991.75397"
       id="text3763"
       sodipodi:linespacing="125%"
       inkscape:export-filename="/home/lauril/Dropbox/LTU/SymphonyJournal/img/system-design_new.png"
       inkscape:export-xdpi="90"
       inkscape:export-ydpi="90"
       transform="scale(1.0593596,0.94396652)"><tspan
         sodipodi:role="line"
         id="tspan3765"
         x="84.080772"
         y="991.75397"
         style="font-size:47.19832611px">HAL</tspan></text>
    <rect
       style="fill:#ffffff;fill-opacity:1;stroke:#000000;stroke-width:1.95050895;stroke-miterlimit:4;stroke-opacity:1;stroke-dasharray:none"
       id="rect3777-3-4-6-3"
       width="191.66209"
       height="59.005653"
       x="52.740379"
       y="816.85931"
       inkscape:export-filename="/home/lauril/Dropbox/LTU/SymphonyJournal/img/system-design_new.png"
       inkscape:export-xdpi="90"
       inkscape:export-ydpi="90" />
    <text
       xml:space="preserve"
       style="font-size:37.75865936px;font-style:normal;font-weight:normal;line-height:125%;letter-spacing:0px;word-spacing:0px;fill:#000000;fill-opacity:1;stroke:none;font-family:Sans"
       x="101.28577"
       y="913.78253"
       id="text3755-4"
       sodipodi:linespacing="125%"
       inkscape:export-filename="/home/lauril/Dropbox/LTU/SymphonyJournal/img/system-design_new.png"
       inkscape:export-xdpi="90"
       inkscape:export-ydpi="90"
       transform="scale(1.0593596,0.94396652)"><tspan
         sodipodi:role="line"
         id="tspan3757-2"
         x="101.28577"
         y="913.78253"
         style="font-size:47.19832611px">OS</tspan></text>
    <rect
       style="fill:#ffffff;fill-opacity:1;stroke:#000000;stroke-width:1.95050895;stroke-miterlimit:4;stroke-opacity:1;stroke-dasharray:none"
       id="rect3777-3-4-6-3-3"
       width="191.66209"
       height="59.005653"
       x="51.31181"
       y="744.00226"
       inkscape:export-filename="/home/lauril/Dropbox/LTU/SymphonyJournal/img/system-design_new.png"
       inkscape:export-xdpi="90"
       inkscape:export-ydpi="90" />
    <text
       xml:space="preserve"
       style="font-size:37.75865936px;font-style:normal;font-weight:normal;line-height:125%;letter-spacing:0px;word-spacing:0px;fill:#000000;fill-opacity:1;stroke:none;font-family:Sans"
       x="93.912025"
       y="831.7149"
       id="text3755-9"
       sodipodi:linespacing="125%"
       inkscape:export-filename="/home/lauril/Dropbox/LTU/SymphonyJournal/img/system-design_new.png"
       inkscape:export-xdpi="90"
       inkscape:export-ydpi="90"
       transform="scale(1.0593596,0.94396652)"><tspan
         sodipodi:role="line"
         id="tspan3757-5"
         x="93.912025"
         y="831.7149"
         style="font-size:47.19832611px">App</tspan></text>
    <rect
       style="fill:#ffffff;fill-opacity:1;stroke:#000000;stroke-width:1.95050895;stroke-miterlimit:4;stroke-opacity:1;stroke-dasharray:none"
       id="rect3777-3-4-9"
       width="191.66209"
       height="59.005653"
       x="638.16895"
       y="889.29852"
       inkscape:export-filename="/home/lauril/Dropbox/LTU/SymphonyJournal/img/system-design_new.png"
       inkscape:export-xdpi="90"
       inkscape:export-ydpi="90" />
    <rect
       style="fill:#ffffff;fill-opacity:1;stroke:#000000;stroke-width:2.07153916;stroke-miterlimit:4;stroke-opacity:1;stroke-dasharray:none"
       id="rect3777-3-7-7"
       width="197.25746"
       height="55.348709"
       x="635.11572"
       y="809.90338"
       inkscape:export-filename="/home/lauril/Dropbox/LTU/SymphonyJournal/img/system-design_new.png"
       inkscape:export-xdpi="90"
       inkscape:export-ydpi="90"
       transform="matrix(0.99999989,4.6005671e-4,-3.7824128e-4,0.99999993,0,0)" />
    <text
       xml:space="preserve"
       style="font-size:47.19832611px;font-style:normal;font-weight:normal;line-height:125%;letter-spacing:0px;word-spacing:0px;fill:#000000;fill-opacity:1;stroke:none;font-family:Sans"
       x="693.40356"
       y="905.24902"
       id="text4016-0-3"
       sodipodi:linespacing="125%"
       inkscape:export-filename="/home/lauril/Dropbox/LTU/SymphonyJournal/img/system-design_new.png"
       inkscape:export-xdpi="90"
       inkscape:export-ydpi="90"
       transform="scale(1.0593596,0.94396652)"><tspan
         style="text-align:center;text-anchor:middle"
         id="tspan3089-4"
         sodipodi:role="line"
         x="693.40356"
         y="905.24902">Active</tspan></text>
    <text
       xml:space="preserve"
       style="font-size:47.19832611px;font-style:normal;font-weight:normal;line-height:125%;letter-spacing:0px;word-spacing:0px;fill:#000000;fill-opacity:1;stroke:none;font-family:Sans"
       x="691.25818"
       y="990.93646"
       id="text4016-0-0"
       sodipodi:linespacing="125%"
       inkscape:export-filename="/home/lauril/Dropbox/LTU/SymphonyJournal/img/system-design_new.png"
       inkscape:export-xdpi="90"
       inkscape:export-ydpi="90"
       transform="scale(1.0593596,0.94396652)"><tspan
         style="text-align:center;text-anchor:middle"
         id="tspan3089-1"
         sodipodi:role="line"
         x="691.25818"
         y="990.93646">Passive</tspan></text>
    <g
       id="g3317"
       transform="translate(0,30.26104)"
       inkscape:export-filename="/home/lauril/Dropbox/LTU/SymphonyJournal/img/system-design_new.png"
       inkscape:export-xdpi="90"
       inkscape:export-ydpi="90">
      <path
         inkscape:export-ydpi="90"
         inkscape:export-xdpi="90"
         inkscape:export-filename="/home/lauril/Dropbox/LTU/SymphonyJournal/img/system-design.png"
         inkscape:connector-curvature="0"
         id="path6671-3-7-3-74"
         d="m 111.36001,915.94108 0,40.86075"
         style="fill:none;stroke:#000000;stroke-width:2.05580974;stroke-linecap:butt;stroke-linejoin:miter;stroke-miterlimit:3;stroke-opacity:1;stroke-dasharray:none;marker-end:url(#Arrow2Mend)" />
      <path
         inkscape:export-ydpi="90"
         inkscape:export-xdpi="90"
         inkscape:export-filename="/home/lauril/Dropbox/LTU/SymphonyJournal/img/system-design.png"
         inkscape:connector-curvature="0"
         id="path6671-3-8-2-2-7"
         d="m 174.35427,957.3779 0,-43.74108"
         style="fill:none;stroke:#000000;stroke-width:2.05580974;stroke-linecap:butt;stroke-linejoin:miter;stroke-miterlimit:3;stroke-opacity:1;stroke-dasharray:none;marker-end:url(#Arrow2Mend)" />
    </g>
    <g
       transform="translate(598.3749,30.26104)"
       id="g3317-8"
       inkscape:export-filename="/home/lauril/Dropbox/LTU/SymphonyJournal/img/system-design_new.png"
       inkscape:export-xdpi="90"
       inkscape:export-ydpi="90">
      <path
         inkscape:export-ydpi="90"
         inkscape:export-xdpi="90"
         inkscape:export-filename="/home/lauril/Dropbox/LTU/SymphonyJournal/img/system-design.png"
         inkscape:connector-curvature="0"
         id="path6671-3-7-3-74-7"
         d="m 111.36001,915.94108 0,40.86075"
         style="fill:none;stroke:#000000;stroke-width:2.05580974;stroke-linecap:butt;stroke-linejoin:miter;stroke-miterlimit:3;stroke-opacity:1;stroke-dasharray:none;marker-end:url(#Arrow2Mend)" />
      <path
         inkscape:export-ydpi="90"
         inkscape:export-xdpi="90"
         inkscape:export-filename="/home/lauril/Dropbox/LTU/SymphonyJournal/img/system-design.png"
         inkscape:connector-curvature="0"
         id="path6671-3-8-2-2-7-6"
         d="m 174.35427,957.3779 0,-43.74108"
         style="fill:none;stroke:#000000;stroke-width:2.05580974;stroke-linecap:butt;stroke-linejoin:miter;stroke-miterlimit:3;stroke-opacity:1;stroke-dasharray:none;marker-end:url(#Arrow2Mend)" />
    </g>
    <g
       transform="translate(824.28571,30.571429)"
       id="g3317-8-7"
       inkscape:export-filename="/home/lauril/Dropbox/LTU/SymphonyJournal/img/system-design_new.png"
       inkscape:export-xdpi="90"
       inkscape:export-ydpi="90">
      <path
         inkscape:export-ydpi="90"
         inkscape:export-xdpi="90"
         inkscape:export-filename="/home/lauril/Dropbox/LTU/SymphonyJournal/img/system-design.png"
         inkscape:connector-curvature="0"
         id="path6671-3-7-3-74-7-8"
         d="m 111.36001,915.94108 0,40.86075"
         style="fill:none;stroke:#000000;stroke-width:2.05580974;stroke-linecap:butt;stroke-linejoin:miter;stroke-miterlimit:3;stroke-opacity:1;stroke-dasharray:none;marker-end:url(#Arrow2Mend)" />
      <path
         inkscape:export-ydpi="90"
         inkscape:export-xdpi="90"
         inkscape:export-filename="/home/lauril/Dropbox/LTU/SymphonyJournal/img/system-design.png"
         inkscape:connector-curvature="0"
         id="path6671-3-8-2-2-7-6-5"
         d="m 174.35427,957.3779 0,-43.74108"
         style="fill:none;stroke:#000000;stroke-width:2.05580974;stroke-linecap:butt;stroke-linejoin:miter;stroke-miterlimit:3;stroke-opacity:1;stroke-dasharray:none;marker-end:url(#Arrow2Mend)" />
    </g>
  </g>
</svg>
