%!PS-Adobe-3.0 EPSF-3.0
%%Creator: MATLAB, The Mathworks, Inc. Version 7.7.0.471 (R2008b). Operating System: Linux 2.6.38-16-generic #67-Ubuntu SMP Thu Sep 6 17:58:38 UTC 2012 x86_64.
%%Title: /home/lauril/Dropbox/LTU/SymphonyJournal/img/time_per_operation_softaes_7part.eps
%%CreationDate: 07/08/2013  17:24:01
%%DocumentNeededFonts: Helvetica-Bold
%%+ Helvetica
%%DocumentProcessColors: Cyan Magenta Yellow Black
%%LanguageLevel: 2
%%Pages: 1
%%BoundingBox:  -470    29  1066   813
%%EndComments

%%BeginProlog
% MathWorks dictionary
/MathWorks 160 dict begin
% definition operators
/bdef {bind def} bind def
/ldef {load def} bind def
/xdef {exch def} bdef
/xstore {exch store} bdef
% operator abbreviations
/c  /clip ldef
/cc /concat ldef
/cp /closepath ldef
/gr /grestore ldef
/gs /gsave ldef
/mt /moveto ldef
/np /newpath ldef
/cm /currentmatrix ldef
/sm /setmatrix ldef
/rm /rmoveto ldef
/rl /rlineto ldef
/s {show newpath} bdef
/sc {setcmykcolor} bdef
/sr /setrgbcolor ldef
/sg /setgray ldef
/w /setlinewidth ldef
/j /setlinejoin ldef
/cap /setlinecap ldef
/rc {rectclip} bdef
/rf {rectfill} bdef
% page state control
/pgsv () def
/bpage {/pgsv save def} bdef
/epage {pgsv restore} bdef
/bplot /gsave ldef
/eplot {stroke grestore} bdef
% orientation switch
/portraitMode 0 def /landscapeMode 1 def /rotateMode 2 def
% coordinate system mappings
/dpi2point 0 def
% font control
/FontSize 0 def
/FMS {/FontSize xstore findfont [FontSize 0 0 FontSize neg 0 0]
  makefont setfont} bdef
/reencode {exch dup where {pop load} {pop StandardEncoding} ifelse
  exch dup 3 1 roll findfont dup length dict begin
  { 1 index /FID ne {def}{pop pop} ifelse } forall
  /Encoding exch def currentdict end definefont pop} bdef
/isroman {findfont /CharStrings get /Agrave known} bdef
/FMSR {3 1 roll 1 index dup isroman {reencode} {pop pop} ifelse
  exch FMS} bdef
/csm {1 dpi2point div -1 dpi2point div scale neg translate
 dup landscapeMode eq {pop -90 rotate}
  {rotateMode eq {90 rotate} if} ifelse} bdef
% line types: solid, dotted, dashed, dotdash
/SO { [] 0 setdash } bdef
/DO { [.5 dpi2point mul 4 dpi2point mul] 0 setdash } bdef
/DA { [6 dpi2point mul] 0 setdash } bdef
/DD { [.5 dpi2point mul 4 dpi2point mul 6 dpi2point mul 4
  dpi2point mul] 0 setdash } bdef
% macros for lines and objects
/L {lineto stroke} bdef
/MP {3 1 roll moveto 1 sub {rlineto} repeat} bdef
/AP {{rlineto} repeat} bdef
/PDlw -1 def
/W {/PDlw currentlinewidth def setlinewidth} def
/PP {closepath eofill} bdef
/DP {closepath stroke} bdef
/MR {4 -2 roll moveto dup  0 exch rlineto exch 0 rlineto
  neg 0 exch rlineto closepath} bdef
/FR {MR stroke} bdef
/PR {MR fill} bdef
/L1i {{currentfile picstr readhexstring pop} image} bdef
/tMatrix matrix def
/MakeOval {newpath tMatrix currentmatrix pop translate scale
0 0 1 0 360 arc tMatrix setmatrix} bdef
/FO {MakeOval stroke} bdef
/PO {MakeOval fill} bdef
/PD {currentlinewidth 2 div 0 360 arc fill
   PDlw -1 eq not {PDlw w /PDlw -1 def} if} def
/FA {newpath tMatrix currentmatrix pop translate scale
  0 0 1 5 -2 roll arc tMatrix setmatrix stroke} bdef
/PA {newpath tMatrix currentmatrix pop	translate 0 0 moveto scale
  0 0 1 5 -2 roll arc closepath tMatrix setmatrix fill} bdef
/FAn {newpath tMatrix currentmatrix pop translate scale
  0 0 1 5 -2 roll arcn tMatrix setmatrix stroke} bdef
/PAn {newpath tMatrix currentmatrix pop translate 0 0 moveto scale
  0 0 1 5 -2 roll arcn closepath tMatrix setmatrix fill} bdef
/vradius 0 def /hradius 0 def /lry 0 def
/lrx 0 def /uly 0 def /ulx 0 def /rad 0 def
/MRR {/vradius xdef /hradius xdef /lry xdef /lrx xdef /uly xdef
  /ulx xdef newpath tMatrix currentmatrix pop ulx hradius add uly
  vradius add translate hradius vradius scale 0 0 1 180 270 arc 
  tMatrix setmatrix lrx hradius sub uly vradius add translate
  hradius vradius scale 0 0 1 270 360 arc tMatrix setmatrix
  lrx hradius sub lry vradius sub translate hradius vradius scale
  0 0 1 0 90 arc tMatrix setmatrix ulx hradius add lry vradius sub
  translate hradius vradius scale 0 0 1 90 180 arc tMatrix setmatrix
  closepath} bdef
/FRR {MRR stroke } bdef
/PRR {MRR fill } bdef
/MlrRR {/lry xdef /lrx xdef /uly xdef /ulx xdef /rad lry uly sub 2 div def
  newpath tMatrix currentmatrix pop ulx rad add uly rad add translate
  rad rad scale 0 0 1 90 270 arc tMatrix setmatrix lrx rad sub lry rad
  sub translate rad rad scale 0 0 1 270 90 arc tMatrix setmatrix
  closepath} bdef
/FlrRR {MlrRR stroke } bdef
/PlrRR {MlrRR fill } bdef
/MtbRR {/lry xdef /lrx xdef /uly xdef /ulx xdef /rad lrx ulx sub 2 div def
  newpath tMatrix currentmatrix pop ulx rad add uly rad add translate
  rad rad scale 0 0 1 180 360 arc tMatrix setmatrix lrx rad sub lry rad
  sub translate rad rad scale 0 0 1 0 180 arc tMatrix setmatrix
  closepath} bdef
/FtbRR {MtbRR stroke } bdef
/PtbRR {MtbRR fill } bdef
/stri 6 array def /dtri 6 array def
/smat 6 array def /dmat 6 array def
/tmat1 6 array def /tmat2 6 array def /dif 3 array def
/asub {/ind2 exch def /ind1 exch def dup dup
  ind1 get exch ind2 get sub exch } bdef
/tri_to_matrix {
  2 0 asub 3 1 asub 4 0 asub 5 1 asub
  dup 0 get exch 1 get 7 -1 roll astore } bdef
/compute_transform {
  dmat dtri tri_to_matrix tmat1 invertmatrix 
  smat stri tri_to_matrix tmat2 concatmatrix } bdef
/ds {stri astore pop} bdef
/dt {dtri astore pop} bdef
/db {2 copy /cols xdef /rows xdef mul dup 3 mul string
  currentfile 
  3 index 0 eq {/ASCIIHexDecode filter}
  {/ASCII85Decode filter 3 index 2 eq {/RunLengthDecode filter} if }
  ifelse exch readstring pop
  dup 0 3 index getinterval /rbmap xdef
  dup 2 index dup getinterval /gbmap xdef
  1 index dup 2 mul exch getinterval /bbmap xdef pop pop}bdef
/it {gs np dtri aload pop moveto lineto lineto cp c
  cols rows 8 compute_transform 
  rbmap gbmap bbmap true 3 colorimage gr}bdef
/il {newpath moveto lineto stroke}bdef
currentdict end def
%%EndProlog

%%BeginSetup
MathWorks begin

0 cap

end
%%EndSetup

%%Page: 1 1
%%BeginPageSetup
%%PageBoundingBox:  -470    29  1066   813
MathWorks begin
bpage
%%EndPageSetup

%%BeginObject: obj1
bplot

/dpi2point 4.16667 def
portraitMode -1958 3387 csm

    0     0  6400  3264 rc
26 dict begin %Colortable dictionary
/c0 { 0.000000 0.000000 0.000000 sr} bdef
/c1 { 1.000000 1.000000 1.000000 sr} bdef
/c2 { 0.900000 0.000000 0.000000 sr} bdef
/c3 { 0.000000 0.820000 0.000000 sr} bdef
/c4 { 0.000000 0.000000 0.800000 sr} bdef
/c5 { 0.910000 0.820000 0.320000 sr} bdef
/c6 { 1.000000 0.260000 0.820000 sr} bdef
/c7 { 0.000000 0.820000 0.820000 sr} bdef
c0
1 j
1 sg
   0    0 6401 3265 rf
16.6667 w
0 2544 5734 0 0 -2544 493 2821 4 MP
PP
-5734 0 0 2544 5734 0 0 -2544 493 2821 5 MP stroke
11.1111 w
DO
SO
16.6667 w
0 sg
 493 2821 mt 6227 2821 L
 493  277 mt 6227  277 L
 493 2821 mt  493  277 L
6227 2821 mt 6227  277 L
 493 2821 mt 6227 2821 L
 493 2821 mt  493  277 L
1209 2821 mt 1209 2763 L
1209  277 mt 1209  334 L
%%IncludeResource: font Helvetica-Bold
/Helvetica-Bold /ISOLatin1Encoding 166.667 FMSR

1094 2993 mt 
(16 ) s
2643 2821 mt 2643 2763 L
2643  277 mt 2643  334 L
2528 2993 mt 
(32 ) s
4076 2821 mt 4076 2763 L
4076  277 mt 4076  334 L
3961 2993 mt 
(64 ) s
5510 2821 mt 5510 2763 L
5510  277 mt 5510  334 L
5371 2993 mt 
(128) s
 493 2821 mt  550 2821 L
6227 2821 mt 6169 2821 L
 389 2885 mt 
(0) s
 493 2255 mt  550 2255 L
6227 2255 mt 6169 2255 L
 389 2319 mt 
(1) s
 493 1690 mt  550 1690 L
6227 1690 mt 6169 1690 L
 389 1754 mt 
(2) s
 493 1125 mt  550 1125 L
6227 1125 mt 6169 1125 L
 389 1189 mt 
(3) s
 493  559 mt  550  559 L
6227  559 mt 6169  559 L
 389  623 mt 
(4) s
 493  259 mt 
(x 10) s
%%IncludeResource: font Helvetica-Bold
/Helvetica-Bold /ISOLatin1Encoding 111.111 FMSR

 817  153 mt 
(4) s
 493 2821 mt 6227 2821 L
 493  277 mt 6227  277 L
 493 2821 mt  493  277 L
6227 2821 mt 6227  277 L
gs 493 277 5735 2545 rc
0.2 sg
0 398 176 0 0 -398 680 2821 4 MP
PP
0 sg
-176 0 0 398 176 0 0 -398 680 2821 5 MP stroke
0.2 sg
0 530 177 0 0 -530 2113 2821 4 MP
PP
0 sg
-177 0 0 530 177 0 0 -530 2113 2821 5 MP stroke
0.2 sg
0 794 176 0 0 -794 3547 2821 4 MP
PP
0 sg
-176 0 0 794 176 0 0 -794 3547 2821 5 MP stroke
0.2 sg
0 1257 177 0 0 -1257 4980 2821 4 MP
PP
0 sg
-177 0 0 1257 177 0 0 -1257 4980 2821 5 MP stroke
5734 0 493 2821 2 MP stroke
0.4 sg
0 645 177 0 0 -645 900 2821 4 MP
PP
0 sg
-177 0 0 645 177 0 0 -645 900 2821 5 MP stroke
0.4 sg
0 896 176 0 0 -896 2334 2821 4 MP
PP
0 sg
-176 0 0 896 176 0 0 -896 2334 2821 5 MP stroke
0.4 sg
0 1398 177 0 0 -1398 3767 2821 4 MP
PP
0 sg
-177 0 0 1398 177 0 0 -1398 3767 2821 5 MP stroke
0.4 sg
0 2280 176 0 0 -2280 5201 2821 4 MP
PP
0 sg
-176 0 0 2280 176 0 0 -2280 5201 2821 5 MP stroke
0.6 sg
0 265 176 0 0 -265 1121 2821 4 MP
PP
0 sg
-176 0 0 265 176 0 0 -265 1121 2821 5 MP stroke
0.6 sg
0 269 176 0 0 -269 2555 2821 4 MP
PP
0 sg
-176 0 0 269 176 0 0 -269 2555 2821 5 MP stroke
0.6 sg
0 277 176 0 0 -277 3988 2821 4 MP
PP
0 sg
-176 0 0 277 176 0 0 -277 3988 2821 5 MP stroke
0.6 sg
0 284 176 0 0 -284 5422 2821 4 MP
PP
0 sg
-176 0 0 284 176 0 0 -284 5422 2821 5 MP stroke
0.8 sg
0 526 176 0 0 -526 1342 2821 4 MP
PP
0 sg
-176 0 0 526 176 0 0 -526 1342 2821 5 MP stroke
0.8 sg
0 662 177 0 0 -662 2775 2821 4 MP
PP
0 sg
-177 0 0 662 177 0 0 -662 2775 2821 5 MP stroke
0.8 sg
0 935 176 0 0 -935 4209 2821 4 MP
PP
0 sg
-176 0 0 935 176 0 0 -935 4209 2821 5 MP stroke
0.8 sg
0 1408 177 0 0 -1408 5642 2821 4 MP
PP
0 sg
-177 0 0 1408 177 0 0 -1408 5642 2821 5 MP stroke
1 sg
0 645 177 0 0 -645 1562 2821 4 MP
PP
0 sg
-177 0 0 645 177 0 0 -645 1562 2821 5 MP stroke
1 sg
0 896 176 0 0 -896 2996 2821 4 MP
PP
0 sg
-176 0 0 896 176 0 0 -896 2996 2821 5 MP stroke
1 sg
0 1398 177 0 0 -1398 4429 2821 4 MP
PP
0 sg
-177 0 0 1398 177 0 0 -1398 4429 2821 5 MP stroke
1 sg
0 2280 176 0 0 -2280 5863 2821 4 MP
PP
0 sg
-176 0 0 2280 176 0 0 -2280 5863 2821 5 MP stroke
gr

%%IncludeResource: font Helvetica-Bold
/Helvetica-Bold /ISOLatin1Encoding 166.667 FMSR

2567 3135 mt 
(Payload size \(bytes\)) s
 331 1981 mt  -90 rotate
(Time \(\302\265s\)) s
90 rotate
 470 2883 mt 
( ) s
6205  338 mt 
( ) s
1 sg
0 1025 640 0 0 -1025 514 1323 4 MP
PP
-640 0 0 1025 640 0 0 -1025 514 1323 5 MP stroke
11.1111 w
DO
SO
16.6667 w
0 sg
 514 1323 mt 1154 1323 L
 514  298 mt 1154  298 L
 514 1323 mt  514  298 L
1154 1323 mt 1154  298 L
 514 1323 mt 1154 1323 L
 514 1323 mt  514  298 L
 514 1323 mt 1154 1323 L
 514  298 mt 1154  298 L
 514 1323 mt  514  298 L
1154 1323 mt 1154  298 L
 675  467 mt 
(sec_1) s
gs 514 298 641 1026 rc
0.2 sg
-124 0 0 159 124 0 0 -159 538 485 5 MP
PP
2.08333 w
0 sg
0 0 -124 0 0 159 124 0 0 -159 538 485 6 MP stroke
gr

2.08333 w
 675  669 mt 
(sec_2) s
gs 514 298 641 1026 rc
0.4 sg
-124 0 0 158 124 0 0 -158 538 687 5 MP
PP
0 sg
0 0 -124 0 0 158 124 0 0 -158 538 687 6 MP stroke
gr

 675  872 mt 
(sec_3) s
gs 514 298 641 1026 rc
0.6 sg
-124 0 0 158 124 0 0 -158 538 889 5 MP
PP
0 sg
0 0 -124 0 0 158 124 0 0 -158 538 889 6 MP stroke
gr

 675 1074 mt 
(sec_4) s
gs 514 298 641 1026 rc
0.8 sg
-124 0 0 158 124 0 0 -158 538 1091 5 MP
PP
0 sg
0 0 -124 0 0 158 124 0 0 -158 538 1091 6 MP stroke
gr

 675 1277 mt 
(sec_5) s
gs 514 298 641 1026 rc
1 sg
-124 0 0 159 124 0 0 -159 538 1294 5 MP
PP
0 sg
0 0 -124 0 0 159 124 0 0 -159 538 1294 6 MP stroke
16.6667 w
gr

16.6667 w

end %%Color Dict

eplot
%%EndObject

epage
end

showpage

%%Trailer
%%EOF
